{
"type": "FeatureCollection",
"crs": { "type": "name", "properties": { "name": "urn:ogc:def:crs:OGC:1.3:CRS84" } },
"features": [
{ "type": "Feature", "properties": { }, "geometry": { "type": "LineString", "coordinates": [ [ -1.802820400185877, 53.633243961578621 ], [ -1.80277515831833, 53.633216922494448 ], [ -1.802729790897638, 53.633216847845191 ], [ -1.802684423477149, 53.633216773178731 ], [ -1.802638930387817, 53.63324366294691 ], [ -1.802593437240634, 53.633270552697617 ], [ -1.802548069762909, 53.633270477979451 ], [ -1.802502702285383, 53.633270403244069 ], [ -1.802457334808062, 53.633270328491534 ], [ -1.802411967330948, 53.633270253721776 ], [ -1.802366599854037, 53.633270178934829 ], [ -1.80232123237733, 53.633270104130688 ], [ -1.802275990801483, 53.633243064858263 ], [ -1.802230749283493, 53.633216025568665 ], [ -1.802230875212666, 53.633189061117399 ], [ -1.802185633781247, 53.63316202181057 ], [ -1.802185759738939, 53.633135057359119 ], [ -1.802185885696425, 53.633108092907555 ], [ -1.802186011653707, 53.633081128455856 ], [ -1.802231504855479, 53.633054238859174 ], [ -1.802231630783431, 53.633027274407162 ], [ -1.802231756711174, 53.63300030995503 ], [ -1.802231882638716, 53.632973345502784 ], [ -1.802232008566055, 53.632946381050388 ], [ -1.802186767393122, 53.63291934174314 ], [ -1.80214152627804, 53.632892302418696 ], [ -1.802096285220809, 53.632865263077122 ], [ -1.802050918179207, 53.632865188170925 ], [ -1.802005551137811, 53.632865113247554 ], [ -1.801960310196688, 53.63283807385455 ], [ -1.801915069313415, 53.63281103444438 ], [ -1.801915195442002, 53.632784069991793 ], [ -1.801915321570384, 53.632757105539049 ], [ -1.801870080802401, 53.632730066111627 ], [ -1.801870206959298, 53.632703101658734 ], [ -1.801824966277886, 53.632676062214088 ], [ -1.801825092463299, 53.632649097761025 ], [ -1.801779851868456, 53.632622058299162 ], [ -1.801734611331462, 53.632595018820112 ], [ -1.801689370852318, 53.632567979323923 ], [ -1.801644130431021, 53.632540939810539 ], [ -1.801598763738563, 53.632540864733322 ], [ -1.801553397046313, 53.632540789638909 ], [ -1.801508156741124, 53.632513750074125 ], [ -1.801508283127777, 53.632486785620841 ], [ -1.801463042909157, 53.632459746038883 ], [ -1.80146316932433, 53.632432781585408 ], [ -1.80146329573929, 53.632405817131826 ], [ -1.801418055635958, 53.632378777532573 ], [ -1.801418182079436, 53.632351813078827 ], [ -1.801372942062672, 53.632324773462365 ], [ -1.801373068534663, 53.632297809008442 ], [ -1.801327828604465, 53.632270769374749 ], [ -1.801327955104969, 53.632243804920648 ], [ -1.80128271526134, 53.63221676526976 ], [ -1.801282841790357, 53.632189800815503 ], [ -1.801282968319171, 53.632162836361111 ], [ -1.801237728590825, 53.63213579669295 ], [ -1.801237855148154, 53.63210883223838 ], [ -1.801192615506371, 53.632081792553002 ], [ -1.801192742092211, 53.632054828098283 ], [ -1.801192868677845, 53.63202786364343 ], [ -1.801192995263277, 53.632000899188469 ], [ -1.801193121848501, 53.631973934733374 ], [ -1.801193248433523, 53.631946970278136 ], [ -1.801193375018337, 53.631920005822813 ], [ -1.801193501602944, 53.631893041367341 ], [ -1.801193628187347, 53.631866076911749 ], [ -1.801193754771546, 53.631839112456056 ], [ -1.801193881355539, 53.631812148000208 ], [ -1.801148642058785, 53.631785108297166 ], [ -1.801103402819878, 53.631758068576985 ], [ -1.801058163638815, 53.63173102883961 ], [ -1.801012924515602, 53.631703989085075 ], [ -1.801013051214261, 53.631677024628921 ], [ -1.801013177912716, 53.63165006017266 ], [ -1.801013304610959, 53.631623095716265 ], [ -1.801013431309002, 53.631596131259748 ], [ -1.801013558006839, 53.631569166803104 ], [ -1.80101368470447, 53.631542202346346 ], [ -1.801013811401893, 53.631515237889452 ], [ -1.801013938099114, 53.63148827343246 ], [ -1.801014064796129, 53.631461308975332 ], [ -1.801014191492938, 53.631434344518077 ], [ -1.801014318189543, 53.631407380060701 ], [ -1.80101444488594, 53.631380415603211 ], [ -1.801014571582131, 53.631353451145586 ], [ -1.801014698278117, 53.631326486687833 ], [ -1.801014824973901, 53.631299522229988 ], [ -1.801014951669476, 53.631272557771986 ], [ -1.801015078364847, 53.631245593313899 ], [ -1.801015205060013, 53.631218628855656 ], [ -1.801015331754972, 53.631191664397292 ], [ -1.801015458449725, 53.631164699938815 ], [ -1.801015585144273, 53.63113773548023 ], [ -1.801015711838618, 53.631110771021504 ], [ -1.801015838532755, 53.631083806562671 ], [ -1.801015965226687, 53.63105684210371 ], [ -1.801016091920415, 53.631029877644622 ], [ -1.801016218613934, 53.631002913185398 ], [ -1.80101634530725, 53.630975948726061 ], [ -1.80101647200036, 53.630948984266617 ], [ -1.801016598693264, 53.630922019807031 ], [ -1.801016725385965, 53.630895055347324 ], [ -1.801016852078459, 53.63086809088751 ], [ -1.801016978770748, 53.630841126427569 ], [ -1.80101710546283, 53.630814161967479 ], [ -1.800971867345113, 53.630787122194171 ], [ -1.800971994065703, 53.630760157733945 ], [ -1.800926756034544, 53.630733117943429 ], [ -1.800881518061227, 53.630706078135731 ], [ -1.800881644839047, 53.630679113675271 ], [ -1.800881771616661, 53.63065214921469 ], [ -1.800881898394069, 53.630625184753995 ], [ -1.800882025171271, 53.630598220293159 ], [ -1.800882151948268, 53.630571255832216 ], [ -1.800882278725061, 53.630544291371137 ], [ -1.800882405501644, 53.630517326909938 ], [ -1.800882532278024, 53.630490362448633 ], [ -1.8008826590542, 53.630463397987199 ], [ -1.800928150263378, 53.630436508872172 ], [ -1.800973641414715, 53.630409619739694 ], [ -1.801019132508212, 53.630382730589737 ], [ -1.801064623543866, 53.630355841422336 ], [ -1.801110114521682, 53.630328952237456 ], [ -1.801155605441653, 53.630302063035138 ], [ -1.801201096303783, 53.630275173815335 ], [ -1.801246587108075, 53.630248284578109 ], [ -1.801292077854526, 53.630221395323396 ], [ -1.801337568543134, 53.630194506051218 ], [ -1.8013830591739, 53.630167616761597 ], [ -1.801428549746828, 53.630140727454496 ], [ -1.801474040261914, 53.630113838129944 ], [ -1.80151953071916, 53.630086948787941 ], [ -1.801565021118567, 53.630060059428466 ], [ -1.801610511460134, 53.630033170051547 ], [ -1.80165600174386, 53.630006280657163 ], [ -1.801701491969744, 53.6299793912453 ], [ -1.80174698213779, 53.629952501815993 ], [ -1.801792472247996, 53.62992561236922 ], [ -1.801837962300359, 53.629898722905004 ], [ -1.801883452294888, 53.629871833423309 ], [ -1.801928942231573, 53.629844943924169 ], [ -1.80197443211042, 53.629818054407551 ], [ -1.802019921931429, 53.629791164873488 ], [ -1.802065411694596, 53.629764275321961 ], [ -1.802110901399926, 53.629737385752975 ], [ -1.802156391047414, 53.629710496166524 ], [ -1.802201880637065, 53.629683606562622 ], [ -1.802247370168878, 53.629656716941255 ], [ -1.802292859642849, 53.629629827302431 ], [ -1.802338349058982, 53.629602937646148 ], [ -1.80238383841728, 53.629576047972414 ], [ -1.802429327717736, 53.629549158281215 ], [ -1.802474816960354, 53.629522268572551 ], [ -1.802520306145133, 53.629495378846435 ], [ -1.802565795272077, 53.629468489102855 ], [ -1.80261128434118, 53.629441599341831 ], [ -1.802656773352445, 53.629414709563328 ], [ -1.802702262305871, 53.629387819767366 ], [ -1.802747751201461, 53.629360929953968 ], [ -1.802793240039214, 53.629334040123098 ], [ -1.802838728819129, 53.629307150274762 ], [ -1.802884217541204, 53.629280260408962 ], [ -1.802929706205444, 53.629253370525738 ], [ -1.802975194811842, 53.629226480625015 ], [ -1.803020683360406, 53.629199590706868 ], [ -1.803066171851134, 53.629172700771242 ], [ -1.803111660284023, 53.629145810818159 ], [ -1.803157148659076, 53.629118920847617 ], [ -1.803202636976293, 53.629092030859624 ], [ -1.80324812523567, 53.629065140854166 ], [ -1.80329361343721, 53.629038250831265 ], [ -1.803339101580914, 53.629011360790891 ], [ -1.803384589666781, 53.628984470733059 ], [ -1.803430077694814, 53.628957580657769 ], [ -1.803475565665009, 53.628930690565035 ], [ -1.803521053577368, 53.628903800454815 ], [ -1.803566541431893, 53.628876910327165 ], [ -1.803612029228578, 53.628850020182057 ], [ -1.803657516967426, 53.62882313001947 ], [ -1.80370300464844, 53.628796239839453 ], [ -1.803748492271619, 53.628769349641949 ], [ -1.803793979836962, 53.628742459427009 ], [ -1.803839467344471, 53.628715569194604 ], [ -1.803884954794142, 53.628688678944734 ], [ -1.803930442185976, 53.62866178867742 ], [ -1.803975929519976, 53.62863489839264 ], [ -1.804021416796139, 53.628608008090396 ], [ -1.804066904014471, 53.6285811177707 ], [ -1.804112391174966, 53.628554227433547 ], [ -1.804157878277626, 53.628527337078964 ], [ -1.804203365322451, 53.628500446706902 ], [ -1.80424885230944, 53.62847355631736 ], [ -1.804294339238594, 53.628446665910396 ], [ -1.804339826109915, 53.628419775485959 ], [ -1.8043853129234, 53.628392885044065 ], [ -1.804430799679054, 53.628365994584726 ], [ -1.804476286376867, 53.628339104107916 ], [ -1.80452177301685, 53.628312213613654 ], [ -1.804567259598997, 53.628285323101942 ], [ -1.804612746123313, 53.62825843257275 ], [ -1.804658232589792, 53.628231542026128 ], [ -1.804703718998438, 53.628204651462035 ], [ -1.804749205349251, 53.628177760880497 ], [ -1.804794691642229, 53.628150870281502 ], [ -1.804840177877374, 53.628123979665041 ], [ -1.804885664054684, 53.628097089031122 ], [ -1.804931150174163, 53.62807019837976 ], [ -1.804976636235808, 53.628043307710918 ], [ -1.805022122239618, 53.628016417024654 ], [ -1.805067608185597, 53.62798952632091 ], [ -1.80511309407374, 53.627962635599715 ], [ -1.80515857990405, 53.627935744861063 ], [ -1.805204065676531, 53.627908854104952 ], [ -1.805204189685914, 53.627881889624824 ], [ -1.805249675371441, 53.627854998851063 ], [ -1.805295160999139, 53.627828108059859 ], [ -1.805295284950087, 53.627801143579205 ], [ -1.805295408900832, 53.627774179098424 ], [ -1.805295532851375, 53.627747214617543 ], [ -1.80529565680172, 53.627720250136527 ], [ -1.805295780751863, 53.627693285655376 ], [ -1.805295904701803, 53.627666321174132 ], [ -1.805341390096963, 53.627639430364276 ], [ -1.805386875434295, 53.627612539537004 ], [ -1.805432360713792, 53.627585648692246 ], [ -1.805477845935457, 53.627558757830037 ], [ -1.805523331099291, 53.627531866950385 ], [ -1.805568816205293, 53.627504976053267 ], [ -1.805614301253462, 53.627478085138705 ], [ -1.805659786243805, 53.627451194206685 ], [ -1.805705271176312, 53.627424303257186 ], [ -1.80575075605099, 53.627397412290257 ], [ -1.805796240867837, 53.627370521305863 ], [ -1.805841725626849, 53.627343630304011 ], [ -1.805887210328034, 53.627316739284723 ], [ -1.80593269497139, 53.627289848247962 ], [ -1.805932818513499, 53.627262883763848 ], [ -1.805978303069906, 53.627235992709458 ], [ -1.806023787568485, 53.62720910163759 ], [ -1.806023911052164, 53.627182137152978 ], [ -1.806024034535647, 53.627155172668246 ], [ -1.806024158018926, 53.627128208183372 ], [ -1.806024281502004, 53.627101243698391 ], [ -1.806024404984883, 53.627074279213289 ], [ -1.806024528467564, 53.627047314728046 ], [ -1.806024651950044, 53.627020350242695 ], [ -1.806024775432321, 53.626993385757231 ], [ -1.806070259640147, 53.626966494666348 ], [ -1.80611574379014, 53.626939603558043 ], [ -1.806161227882308, 53.626912712432237 ], [ -1.806206711916644, 53.626885821289008 ], [ -1.806206835282262, 53.626858856802642 ], [ -1.806206958647685, 53.626831892316147 ], [ -1.80625244256596, 53.626805001155063 ], [ -1.806252565902064, 53.626778036668249 ], [ -1.8062980497334, 53.626751145489528 ], [ -1.806298173040188, 53.626724181002388 ], [ -1.80629829634678, 53.62669721651514 ], [ -1.806343780062057, 53.626670325318557 ], [ -1.806343903339332, 53.626643360830982 ], [ -1.806389386967665, 53.626616469616778 ], [ -1.806389510215626, 53.626589505128891 ], [ -1.806389633463391, 53.62656254064089 ], [ -1.806435116975668, 53.626535649408822 ], [ -1.806435240194119, 53.626508684920495 ], [ -1.806435363412366, 53.626481720432039 ], [ -1.806480846808586, 53.626454829182144 ], [ -1.806480969997523, 53.626427864693376 ], [ -1.806481093186256, 53.626400900204494 ], [ -1.806481216374794, 53.626373935715478 ], [ -1.806526699625848, 53.626347044447535 ], [ -1.80652682278507, 53.626320079958226 ], [ -1.806526945944093, 53.626293115468762 ], [ -1.806527069102916, 53.626266150979184 ], [ -1.806572552208803, 53.626239259693207 ], [ -1.806572675338313, 53.626212295203317 ], [ -1.806572798467622, 53.626185330713312 ], [ -1.806572921596733, 53.626158366223187 ], [ -1.806618404557453, 53.62613147491917 ], [ -1.806618527657251, 53.626104510428711 ], [ -1.806618650756848, 53.626077545938138 ], [ -1.806618773856248, 53.626050581447437 ], [ -1.806664256671804, 53.626023690125407 ], [ -1.806664379741888, 53.625996725634387 ], [ -1.806664502811777, 53.625969761143246 ], [ -1.806664625881462, 53.625942796651984 ], [ -1.806664748950951, 53.625915832160608 ], [ -1.806710231592229, 53.625888940820339 ], [ -1.806710354632406, 53.625861976328636 ], [ -1.806710477672381, 53.625835011836813 ], [ -1.806755960197606, 53.625808120478695 ], [ -1.806756083208273, 53.625781155986552 ], [ -1.806756206218735, 53.625754191494309 ], [ -1.806756329229004, 53.62572722700191 ], [ -1.80675645223907, 53.625700262509412 ], [ -1.806801934590021, 53.625673371133082 ], [ -1.806802057570776, 53.625646406640243 ], [ -1.806802180551329, 53.625619442147311 ], [ -1.806802303531685, 53.625592477654244 ], [ -1.80684778573748, 53.625565586259853 ], [ -1.806847908688527, 53.625538621766474 ], [ -1.806893390807379, 53.625511730354447 ], [ -1.806938872868412, 53.625484838924955 ], [ -1.806984354871622, 53.625457947478004 ], [ -1.807029836817004, 53.625431056013625 ], [ -1.807075318704561, 53.625404164531773 ], [ -1.807120800534296, 53.625377273032456 ], [ -1.807166282306211, 53.625350381515716 ], [ -1.807211764020296, 53.625323489981518 ], [ -1.80725724567656, 53.625296598429841 ], [ -1.807302727275, 53.625269706860749 ], [ -1.807348208815613, 53.625242815274184 ], [ -1.807393690298407, 53.625215923670162 ], [ -1.807439171723378, 53.625189032048702 ], [ -1.80748465309052, 53.625162140409785 ], [ -1.807530134399845, 53.625135248753409 ], [ -1.807575615651342, 53.625108357079576 ], [ -1.807621096845017, 53.625081465388305 ], [ -1.807666577980871, 53.625054573679563 ], [ -1.807712059058901, 53.625027681953398 ], [ -1.807757540079108, 53.625000790209747 ], [ -1.807803021041491, 53.624973898448665 ], [ -1.807848501946055, 53.624947006670126 ], [ -1.807893982792792, 53.624920114874136 ], [ -1.807939463581707, 53.624893223060702 ], [ -1.807984944312803, 53.624866331229789 ], [ -1.808030424986075, 53.624839439381446 ], [ -1.808075905601524, 53.624812547515646 ], [ -1.808121386159151, 53.624785655632394 ], [ -1.808166866658957, 53.624758763731691 ], [ -1.808212347100941, 53.624731871813538 ], [ -1.808257827485104, 53.624704979877933 ], [ -1.80830330781144, 53.624678087924877 ], [ -1.808348788079961, 53.624651195954364 ], [ -1.808394268290658, 53.624624303966407 ], [ -1.808439748443534, 53.624597411960998 ], [ -1.808485228538587, 53.624570519938111 ], [ -1.80853070857582, 53.624543627897815 ], [ -1.808576188555231, 53.624516735840047 ], [ -1.808621668476821, 53.62448984376482 ], [ -1.80866714834059, 53.62446295167215 ], [ -1.80871262814654, 53.624436059562036 ], [ -1.80875810789467, 53.624409167434465 ], [ -1.808803587584976, 53.624382275289435 ], [ -1.808849067217463, 53.624355383126968 ], [ -1.808894546792129, 53.624328490947036 ], [ -1.808940026308974, 53.624301598749661 ], [ -1.808985505767999, 53.624274706534834 ], [ -1.809030985169203, 53.624247814302556 ], [ -1.809076464512589, 53.624220922052835 ], [ -1.809121943798154, 53.624194029785642 ], [ -1.809167423025897, 53.624167137501011 ], [ -1.809212902195825, 53.624140245198944 ], [ -1.809258381307928, 53.624113352879398 ], [ -1.809303860362214, 53.624086460542422 ], [ -1.809349339358682, 53.624059568188017 ], [ -1.809394818297329, 53.624032675816103 ], [ -1.809440297178154, 53.624005783426789 ], [ -1.809485776001161, 53.623978891020002 ], [ -1.809531254766351, 53.623951998595764 ], [ -1.80957673347372, 53.623925106154083 ], [ -1.80962221212327, 53.623898213694943 ], [ -1.809667690715003, 53.623871321218374 ], [ -1.809713169248914, 53.623844428724347 ], [ -1.809758647725009, 53.623817536212854 ], [ -1.809804126143284, 53.623790643683904 ], [ -1.809849604503742, 53.623763751137524 ], [ -1.809895082806379, 53.623736858573693 ], [ -1.809940561051199, 53.623709965992404 ], [ -1.8099860392382, 53.623683073393693 ], [ -1.810031517367384, 53.623656180777488 ], [ -1.810076995438746, 53.623629288143853 ], [ -1.810122473452297, 53.623602395492789 ], [ -1.810167951408023, 53.623575502824252 ], [ -1.810213429305937, 53.623548610138265 ], [ -1.810258907146031, 53.623521717434841 ], [ -1.810304384928305, 53.623494824713923 ], [ -1.810349862652765, 53.623467931975625 ], [ -1.810395340319404, 53.623441039219834 ], [ -1.81044081792823, 53.623414146446613 ], [ -1.810486295479237, 53.623387253655935 ], [ -1.810531772972426, 53.623360360847805 ], [ -1.810577250407796, 53.623333468022238 ], [ -1.810622727785352, 53.623306575179214 ], [ -1.810668205105091, 53.623279682318753 ], [ -1.810713682367012, 53.623252789440805 ], [ -1.810759159571115, 53.623225896545442 ], [ -1.810804636717406, 53.623199003632628 ], [ -1.810850113805877, 53.623172110702342 ], [ -1.810895590836532, 53.62314521775464 ], [ -1.81094106780937, 53.623118324789473 ], [ -1.810986544724392, 53.623091431806863 ], [ -1.811032021581601, 53.623064538806794 ], [ -1.811077498380992, 53.623037645789275 ], [ -1.811122975122565, 53.623010752754311 ], [ -1.811168451806324, 53.622983859701897 ], [ -1.811213928432268, 53.622956966632053 ], [ -1.811259405000394, 53.622930073544751 ], [ -1.811304881510706, 53.622903180439984 ], [ -1.811350357963201, 53.622876287317773 ], [ -1.811395834357881, 53.622849394178132 ], [ -1.811441310694746, 53.62282250102102 ], [ -1.811486786973797, 53.622795607846484 ], [ -1.811532263195031, 53.622768714654491 ], [ -1.811577739358452, 53.622741821445032 ], [ -1.811623215464054, 53.622714928218151 ], [ -1.811668691511846, 53.622688034973812 ], [ -1.811714167501822, 53.62266114171203 ], [ -1.811759643433984, 53.622634248432789 ], [ -1.81180511930833, 53.622607355136111 ], [ -1.81185059512486, 53.622580461821983 ], [ -1.811896070883579, 53.622553568490396 ], [ -1.81194154658448, 53.622526675141387 ], [ -1.811987022227567, 53.622499781774906 ], [ -1.812032497812843, 53.622472888390995 ], [ -1.812077973340304, 53.622445994989619 ], [ -1.812123448809952, 53.622419101570813 ], [ -1.812168924221784, 53.622392208134542 ], [ -1.812214399575804, 53.622365314680827 ], [ -1.812259874872009, 53.622338421209662 ], [ -1.8123053501104, 53.622311527721067 ], [ -1.812350825290978, 53.622284634215021 ], [ -1.812396300413745, 53.622257740691524 ], [ -1.812441775478696, 53.622230847150576 ], [ -1.812487250485836, 53.622203953592177 ], [ -1.812532725435159, 53.622177060016348 ], [ -1.812578200326673, 53.622150166423062 ], [ -1.812623675160373, 53.622123272812331 ], [ -1.812669149936257, 53.622096379184136 ], [ -1.812714624654335, 53.622069485538518 ], [ -1.812760099314594, 53.622042591875442 ], [ -1.81280545477883, 53.622042662713582 ], [ -1.812850929352565, 53.622015769015803 ], [ -1.81289640386849, 53.621988875300588 ], [ -1.812941759275491, 53.621988946087043 ], [ -1.812987114682686, 53.621989016856276 ], [ -1.813032470090075, 53.62198908760837 ], [ -1.813077825497654, 53.621989158343261 ], [ -1.813123180905425, 53.621989229060958 ], [ -1.813168536313392, 53.621989299761481 ], [ -1.813213891721554, 53.62198937044483 ], [ -1.813259247129905, 53.621989441110969 ], [ -1.81330460253845, 53.621989511759935 ], [ -1.813349957947189, 53.621989582391713 ], [ -1.813395313356118, 53.621989653006317 ], [ -1.81344066876524, 53.621989723603726 ], [ -1.813486024174556, 53.621989794183939 ], [ -1.813531379584063, 53.621989864746979 ], [ -1.813576734993762, 53.621989935292831 ], [ -1.813622090403658, 53.621990005821495 ], [ -1.813667445813741, 53.621990076332978 ], [ -1.813712801224019, 53.621990146827279 ], [ -1.813758156634487, 53.621990217304386 ], [ -1.813803512045151, 53.621990287764312 ], [ -1.813848867456002, 53.62199035820705 ], [ -1.813894222867047, 53.621990428632628 ], [ -1.813939578278287, 53.621990499040983 ], [ -1.813984933689714, 53.621990569432171 ], [ -1.814030289101338, 53.621990639806171 ], [ -1.814075644513152, 53.62199071016299 ], [ -1.81412099992516, 53.621990780502607 ], [ -1.814166355337354, 53.621990850825057 ], [ -1.814211710749747, 53.621990921130312 ], [ -1.814257066162326, 53.621990991418386 ], [ -1.8143024215751, 53.621991061689272 ], [ -1.814347776988061, 53.621991131942977 ], [ -1.81439313240122, 53.621991202179501 ], [ -1.814438487814567, 53.621991272398823 ], [ -1.814483843228107, 53.621991342600971 ], [ -1.814529198641835, 53.621991412785931 ], [ -1.814574554055759, 53.621991482953717 ], [ -1.814619909469871, 53.621991553104309 ], [ -1.814665264884178, 53.621991623237705 ], [ -1.81471062029867, 53.621991693353941 ], [ -1.81475597571336, 53.621991763452954 ], [ -1.814801331128236, 53.621991833534814 ], [ -1.814846686543307, 53.621991903599479 ], [ -1.814892041958567, 53.621991973646956 ], [ -1.81493739737402, 53.621992043677245 ], [ -1.81498275278966, 53.621992113690361 ], [ -1.815028108205494, 53.621992183686281 ], [ -1.815073463621518, 53.621992253665013 ], [ -1.815118819037734, 53.621992323626571 ], [ -1.81516417445414, 53.621992393570935 ], [ -1.815209529870735, 53.621992463498117 ], [ -1.815254885287526, 53.621992533408118 ], [ -1.815300240704501, 53.621992603300924 ], [ -1.815345596121672, 53.621992673176557 ], [ -1.815390951539029, 53.621992743034987 ], [ -1.815436306956581, 53.621992812876243 ], [ -1.815481662374319, 53.621992882700312 ], [ -1.815527017792252, 53.621992952507192 ], [ -1.815572373210371, 53.621993022296898 ], [ -1.815617728628684, 53.621993092069417 ], [ -1.815663084047184, 53.621993161824747 ], [ -1.815708439465878, 53.621993231562882 ], [ -1.815753794884758, 53.621993301283844 ], [ -1.815799150303833, 53.621993370987624 ], [ -1.815844505723093, 53.621993440674203 ], [ -1.815889861142547, 53.621993510343607 ], [ -1.815935216562188, 53.621993579995831 ], [ -1.815980571982021, 53.621993649630859 ], [ -1.816025927402042, 53.6219937192487 ], [ -1.816071282822255, 53.621993788849359 ], [ -1.816116638242655, 53.621993858432837 ], [ -1.816161993663251, 53.621993927999135 ], [ -1.81620734908403, 53.62199399754823 ], [ -1.816252704505002, 53.621994067080152 ], [ -1.816298059926162, 53.621994136594886 ], [ -1.816343415347513, 53.621994206092431 ], [ -1.816388770769053, 53.621994275572803 ], [ -1.816434126190779, 53.621994345035965 ], [ -1.8164794816127, 53.621994414481975 ], [ -1.816524837034806, 53.621994483910775 ], [ -1.816570192457107, 53.621994553322395 ], [ -1.816615547879592, 53.621994622716826 ], [ -1.81666090330227, 53.621994692094077 ], [ -1.816706258725131, 53.621994761454147 ], [ -1.81675161414819, 53.621994830797021 ], [ -1.816796969571431, 53.621994900122729 ], [ -1.816842324994867, 53.621994969431242 ], [ -1.816887680418485, 53.621995038722567 ], [ -1.816933035842297, 53.621995107996696 ], [ -1.816978391266294, 53.621995177253666 ], [ -1.817023746690487, 53.621995246493434 ], [ -1.81706910211486, 53.621995315716006 ], [ -1.81711445753943, 53.621995384921405 ], [ -1.817159812964182, 53.621995454109616 ], [ -1.817205168389128, 53.621995523280646 ], [ -1.817250523814256, 53.621995592434487 ], [ -1.817295879239581, 53.621995661571169 ], [ -1.817341234665088, 53.621995730690621 ], [ -1.817386590090787, 53.621995799792899 ], [ -1.817431945516672, 53.62199586887801 ], [ -1.817477300942748, 53.621995937945925 ], [ -1.81752265636901, 53.621996006996653 ], [ -1.817568011795461, 53.621996076030193 ], [ -1.8176133672221, 53.621996145046559 ], [ -1.817658722648926, 53.62199621404573 ], [ -1.817704078075944, 53.621996283027727 ], [ -1.817749433503146, 53.621996351992522 ], [ -1.817794788930542, 53.621996420940157 ], [ -1.817840144358121, 53.62199648987059 ], [ -1.81788549978589, 53.621996558783827 ], [ -1.817930855213844, 53.621996627679891 ], [ -1.81797621064199, 53.621996696558767 ], [ -1.818021566070321, 53.621996765420455 ], [ -1.818066921498842, 53.621996834264962 ], [ -1.818112276927547, 53.621996903092295 ], [ -1.818157632356444, 53.621996971902419 ], [ -1.818202987785525, 53.621997040695383 ], [ -1.818248343214797, 53.621997109471138 ], [ -1.818293698644254, 53.621997178229719 ], [ -1.818339054073903, 53.621997246971119 ], [ -1.818384409503732, 53.621997315695317 ], [ -1.818429764933753, 53.621997384402356 ], [ -1.81847512036396, 53.621997453092199 ], [ -1.818520475794356, 53.62199752176484 ], [ -1.818565831224938, 53.6219975904203 ], [ -1.818611186655708, 53.621997659058586 ], [ -1.818656542086664, 53.621997727679677 ], [ -1.818701897517807, 53.621997796283601 ], [ -1.818747137597833, 53.622024829398065 ], [ -1.818792377735672, 53.62205186249534 ], [ -1.818837617931321, 53.622078895575441 ], [ -1.818882858184784, 53.622105928638391 ], [ -1.818928098496061, 53.622132961684144 ], [ -1.818973338865151, 53.622159994712739 ], [ -1.819018579292051, 53.622187027724152 ], [ -1.819063819776766, 53.622214060718399 ], [ -1.819109060319295, 53.622241093695472 ], [ -1.819154300919635, 53.622268126655356 ], [ -1.819199541577792, 53.622295159598075 ], [ -1.819244782293758, 53.62232219252364 ], [ -1.819290023067542, 53.622349225432004 ], [ -1.819335263899138, 53.6223762583232 ], [ -1.819380504788547, 53.622403291197223 ], [ -1.81942574573577, 53.622430324054079 ], [ -1.819470986740806, 53.62245735689374 ], [ -1.81947087184883, 53.622484321420465 ], [ -1.819470756956674, 53.622511285947063 ], [ -1.819515998076966, 53.622538318769458 ], [ -1.81951588321334, 53.62256528329587 ], [ -1.81951576834953, 53.622592247822169 ], [ -1.819515653485534, 53.622619212348354 ], [ -1.819515538621352, 53.622646176874404 ], [ -1.819515423756979, 53.622673141400341 ], [ -1.819515308892426, 53.62270010592615 ], [ -1.819515194027684, 53.62272707045183 ], [ -1.819515079162754, 53.622754034977397 ], [ -1.819514964297639, 53.622780999502844 ], [ -1.819514849432338, 53.622807964028141 ], [ -1.819514734566851, 53.622834928553345 ], [ -1.819514619701175, 53.622861893078429 ], [ -1.819514504835317, 53.622888857603378 ], [ -1.819514389969274, 53.622915822128206 ], [ -1.819514275103036, 53.622942786652914 ], [ -1.819514160236621, 53.622969751177493 ], [ -1.819514045370014, 53.622996715701952 ], [ -1.819513930503223, 53.623023680226289 ], [ -1.819513815636247, 53.623050644750499 ], [ -1.81951370076908, 53.623077609274617 ], [ -1.819513585901734, 53.623104573798578 ], [ -1.819513471034196, 53.623131538322426 ], [ -1.819513356166475, 53.623158502846159 ], [ -1.819513241298565, 53.623185467369744 ], [ -1.819513126430472, 53.623212431893229 ], [ -1.819513011562188, 53.623239396416594 ], [ -1.819512896693722, 53.623266360939823 ], [ -1.819512781825067, 53.623293325462953 ], [ -1.819512666956228, 53.623320289985934 ], [ -1.8195125520872, 53.623347254508808 ], [ -1.819512437217989, 53.623374219031547 ], [ -1.819512322348588, 53.623401183554165 ], [ -1.819512207479005, 53.62342814807667 ], [ -1.819512092609231, 53.623455112599046 ], [ -1.819511977739275, 53.623482077121317 ], [ -1.81951186286913, 53.623509041643445 ], [ -1.819511747998801, 53.623536006165466 ], [ -1.819511633128283, 53.623562970687352 ], [ -1.819511518257582, 53.623589935209111 ], [ -1.819511403386689, 53.623616899730749 ], [ -1.819511288515616, 53.62364386425228 ], [ -1.819511173644354, 53.623670828773683 ], [ -1.819511058772907, 53.623697793294959 ], [ -1.819510943901272, 53.623724757816099 ], [ -1.81951082902945, 53.623751722337154 ], [ -1.819510714157444, 53.623778686858046 ], [ -1.81951059928525, 53.623805651378845 ], [ -1.819510484412872, 53.623832615899502 ], [ -1.819510369540304, 53.623859580420053 ], [ -1.819510254667554, 53.623886544940461 ], [ -1.819510139794615, 53.62391350946077 ], [ -1.819510024921492, 53.623940473980923 ], [ -1.819509910048179, 53.623967438500991 ], [ -1.819509795174685, 53.62399440302093 ], [ -1.819509680301, 53.624021367540742 ], [ -1.819509565427131, 53.624048332060404 ], [ -1.819509450553074, 53.624075296579989 ], [ -1.819509335678833, 53.624102261099416 ], [ -1.819509220804403, 53.624129225618738 ], [ -1.81950910592979, 53.624156190137938 ], [ -1.819508991054988, 53.624183154656997 ], [ -1.819508876180001, 53.624210119175956 ], [ -1.819508761304827, 53.62423708369478 ], [ -1.819508646429468, 53.624264048213483 ], [ -1.81950853155392, 53.624291012732073 ], [ -1.819508416678187, 53.624317977250534 ], [ -1.81950830180227, 53.624344941768868 ], [ -1.819508186926163, 53.624371906287081 ], [ -1.819508072049875, 53.624398870805166 ], [ -1.819553315209836, 53.62442590360655 ], [ -1.81959855842762, 53.62445293639076 ], [ -1.819643801703228, 53.624479969157782 ], [ -1.819689045036653, 53.624507001907638 ], [ -1.819734288427902, 53.624534034640334 ], [ -1.81977953187697, 53.624561067355835 ], [ -1.819824775383861, 53.624588100054162 ], [ -1.819870018948573, 53.624615132735322 ], [ -1.81991526257111, 53.624642165399287 ], [ -1.819960506251463, 53.624669198046099 ], [ -1.820005749989641, 53.624696230675724 ], [ -1.82005099378564, 53.624723263288168 ], [ -1.820096237639462, 53.624750295883437 ], [ -1.820141481551104, 53.624777328461533 ], [ -1.82018672552057, 53.624804361022449 ], [ -1.820231969547857, 53.62483139356619 ], [ -1.820277442408716, 53.624804497058342 ], [ -1.820322800853071, 53.624804565050518 ], [ -1.820368273627385, 53.624777668507967 ], [ -1.820413746343872, 53.624750771947987 ], [ -1.820459104730961, 53.624750839888456 ], [ -1.820504463118232, 53.624750907811737 ], [ -1.820549821505689, 53.624750975717831 ], [ -1.820595179893331, 53.62475104360675 ], [ -1.820640538281157, 53.624751111478488 ], [ -1.820685896669172, 53.624751179333025 ], [ -1.820731255057367, 53.624751247170366 ], [ -1.820776499376361, 53.624778279508774 ], [ -1.820821743753175, 53.624805311830009 ], [ -1.820866988187813, 53.624832344134063 ], [ -1.82091223268027, 53.624859376420943 ], [ -1.820957477230555, 53.624886408690642 ], [ -1.821002721838657, 53.624913440943182 ], [ -1.821047966504584, 53.624940473178519 ], [ -1.821093211228336, 53.624967505396697 ], [ -1.821138456009904, 53.624994537597694 ], [ -1.821183700849301, 53.625021569781502 ], [ -1.821228945746519, 53.625048601948137 ], [ -1.82127419070156, 53.625075634097605 ], [ -1.821319435714425, 53.625102666229907 ], [ -1.821364680785111, 53.625129698345013 ], [ -1.821409925913624, 53.625156730442939 ], [ -1.821455171099957, 53.62518376252369 ], [ -1.821500416344116, 53.625210794587268 ], [ -1.821545661646098, 53.625237826633658 ], [ -1.821590907005905, 53.625264858662881 ], [ -1.821636152423532, 53.625291890674944 ], [ -1.821681397898986, 53.625318922669784 ], [ -1.821726643432265, 53.625345954647486 ], [ -1.821771889023365, 53.625372986608006 ], [ -1.82181713467229, 53.625400018551332 ], [ -1.82186238037904, 53.625427050477491 ], [ -1.821907626143613, 53.625454082386462 ], [ -1.821952871966015, 53.625481114278273 ], [ -1.821998117846237, 53.625508146152889 ], [ -1.822043363784286, 53.625535178010331 ], [ -1.822088609780159, 53.625562209850607 ], [ -1.822133855833857, 53.625589241673701 ], [ -1.822179101945377, 53.625616273479594 ], [ -1.822224461264834, 53.625616340751883 ], [ -1.822269707463281, 53.625643372523484 ], [ -1.822314953719548, 53.625670404277919 ], [ -1.822360313097381, 53.625670471498793 ], [ -1.822405559440571, 53.625697503218916 ], [ -1.822450918847683, 53.625697570405457 ], [ -1.822496165277793, 53.625724602091296 ], [ -1.822541524714184, 53.625724669243532 ], [ -1.822586884150758, 53.625724736378572 ], [ -1.822632130696887, 53.625751768012975 ], [ -1.822677490162739, 53.625751835113718 ], [ -1.822722849628774, 53.625751902197273 ], [ -1.822768209094991, 53.625751969263639 ], [ -1.822813568561394, 53.625752036312818 ], [ -1.822858928027976, 53.625752103344801 ], [ -1.822904287494743, 53.625752170359611 ], [ -1.822949646961692, 53.625752237357226 ], [ -1.822995006428827, 53.625752304337638 ], [ -1.82304036589614, 53.625752371300877 ], [ -1.823085725363638, 53.625752438246934 ], [ -1.823131084831319, 53.625752505175797 ], [ -1.823176444299182, 53.625752572087478 ], [ -1.823221803767226, 53.625752638981972 ], [ -1.823267163235455, 53.62575270585927 ], [ -1.823312410246749, 53.62577973723679 ], [ -1.823357657315865, 53.625806768597137 ], [ -1.823402904442808, 53.625833799940281 ], [ -1.823448151627578, 53.625860831266266 ], [ -1.823493398870173, 53.625887862575084 ], [ -1.823538646170594, 53.625914893866707 ], [ -1.823583893528842, 53.625941925141142 ], [ -1.823629140944917, 53.625968956398424 ], [ -1.823674388418814, 53.625995987638504 ], [ -1.82371963595054, 53.62602301886141 ], [ -1.823764883540095, 53.62605005006715 ], [ -1.823810131187474, 53.626077081255687 ], [ -1.82385537889268, 53.626104112427058 ], [ -1.823900626655715, 53.626131143581254 ], [ -1.823945874476572, 53.626158174718249 ], [ -1.823991122355261, 53.626185205838084 ], [ -1.824036370291773, 53.626212236940731 ], [ -1.824081618286115, 53.626239268026197 ], [ -1.824126866338283, 53.626266299094475 ], [ -1.82417211444828, 53.626293330145607 ], [ -1.824217362616102, 53.626320361179523 ], [ -1.824262610841753, 53.626347392196266 ], [ -1.824307859125231, 53.626374423195841 ], [ -1.824353107466538, 53.626401454178229 ], [ -1.824398355865672, 53.62642848514345 ], [ -1.824443604322633, 53.626455516091468 ], [ -1.824488852837423, 53.62648254702232 ], [ -1.824534101410041, 53.626509577935977 ], [ -1.824579350040487, 53.62653660883246 ], [ -1.824624598728763, 53.626563639711769 ], [ -1.824669847474865, 53.62659067057389 ], [ -1.824715096278797, 53.626617701418837 ], [ -1.824760345140557, 53.626644732246589 ], [ -1.824805594060148, 53.626671763057182 ], [ -1.824850843037562, 53.626698793850579 ], [ -1.82489609207281, 53.626725824626803 ], [ -1.824941341165885, 53.626752855385831 ], [ -1.824986590316787, 53.626779886127693 ], [ -1.825031839525525, 53.626806916852388 ], [ -1.825077088792086, 53.626833947559867 ], [ -1.825122338116476, 53.626860978250193 ], [ -1.825167587498699, 53.626888008923331 ], [ -1.825212836938751, 53.626915039579252 ], [ -1.825258086436631, 53.626942070218043 ], [ -1.825303335992342, 53.626969100839624 ], [ -1.825348585605885, 53.626996131444059 ], [ -1.825393835277254, 53.627023162031271 ], [ -1.825439085006453, 53.627050192601317 ], [ -1.825484334793484, 53.627077223154188 ], [ -1.825529584638345, 53.627104253689872 ], [ -1.825574834541033, 53.627131284208382 ], [ -1.825620084501558, 53.627158314709696 ], [ -1.825665334519908, 53.62718534519383 ], [ -1.82571058459609, 53.627212375660775 ], [ -1.825755834730105, 53.627239406110554 ], [ -1.825801195798749, 53.627239472028911 ], [ -1.825846556867575, 53.627239537930059 ], [ -1.825891807117609, 53.627266568328395 ], [ -1.825937168215712, 53.627266634195244 ], [ -1.825982418552671, 53.627293664559261 ], [ -1.826027668947461, 53.627320694906132 ], [ -1.826073030103932, 53.627320760721545 ], [ -1.826118391260584, 53.627320826519743 ], [ -1.826163752417415, 53.62732089230078 ], [ -1.826209113574422, 53.627320958064622 ], [ -1.826254474731611, 53.62732102381127 ], [ -1.82629983588898, 53.627321089540736 ], [ -1.826345197046527, 53.627321155253 ], [ -1.826390558204255, 53.627321220948083 ], [ -1.826435919362158, 53.627321286625971 ], [ -1.826481280520244, 53.627321352286693 ], [ -1.826526641678508, 53.627321417930204 ], [ -1.826572002836952, 53.627321483556521 ], [ -1.826617363995573, 53.627321549165664 ], [ -1.826662725154376, 53.627321614757619 ], [ -1.826708086313354, 53.627321680332379 ], [ -1.826753447472512, 53.627321745889958 ], [ -1.82679880863185, 53.627321811430328 ], [ -1.826844169791369, 53.627321876953538 ], [ -1.826889530951063, 53.62732194245956 ], [ -1.826934892110937, 53.627322007948365 ], [ -1.826980253270989, 53.627322073419997 ], [ -1.827025614431222, 53.627322138874433 ], [ -1.827070975591631, 53.627322204311682 ], [ -1.827116336752219, 53.627322269731749 ], [ -1.827161697912985, 53.627322335134622 ], [ -1.827207059073933, 53.62732240052032 ], [ -1.827252420235054, 53.627322465888803 ], [ -1.827297781396356, 53.627322531240104 ], [ -1.827343142557836, 53.627322596574245 ], [ -1.827388503719494, 53.627322661891171 ], [ -1.827433864881331, 53.627322727190915 ], [ -1.827479226043347, 53.627322792473471 ], [ -1.827524587205538, 53.627322857738832 ], [ -1.827569948367908, 53.627322922987013 ], [ -1.827615309530456, 53.627322988218005 ], [ -1.827660670693183, 53.627323053431802 ], [ -1.82770603185609, 53.627323118628411 ], [ -1.827751393019171, 53.627323183807832 ], [ -1.827796754182431, 53.627323248970058 ], [ -1.827842115345869, 53.627323314115124 ], [ -1.827887476509486, 53.627323379242974 ], [ -1.827932837673278, 53.627323444353642 ], [ -1.827978198837249, 53.627323509447137 ], [ -1.828023560001398, 53.627323574523402 ], [ -1.828068921165725, 53.627323639582514 ], [ -1.828114282330227, 53.62732370462443 ], [ -1.828159643494907, 53.627323769649145 ], [ -1.828205004659766, 53.627323834656693 ], [ -1.828250365824803, 53.627323899647045 ], [ -1.828295726990016, 53.627323964620203 ], [ -1.828341088155404, 53.627324029576158 ], [ -1.828386449320972, 53.627324094514947 ], [ -1.828431810486717, 53.627324159436547 ], [ -1.828477171652638, 53.627324224340938 ], [ -1.828522532818736, 53.627324289228177 ], [ -1.828567893985012, 53.627324354098192 ], [ -1.828613255151465, 53.627324418951027 ], [ -1.828658616318095, 53.627324483786687 ], [ -1.828703977484901, 53.627324548605138 ], [ -1.828749338651882, 53.627324613406408 ], [ -1.828794699819043, 53.62732467819049 ], [ -1.828840060986378, 53.627324742957391 ], [ -1.828885422153893, 53.62732480770709 ], [ -1.828930783321584, 53.627324872439615 ], [ -1.828976144489449, 53.627324937154931 ], [ -1.829021505657492, 53.627325001853066 ], [ -1.829066866825713, 53.627325066534034 ], [ -1.829112227994109, 53.627325131197793 ], [ -1.829157589162681, 53.627325195844371 ], [ -1.829202950331429, 53.627325260473761 ], [ -1.829248311500354, 53.627325325085948 ], [ -1.829293672669456, 53.627325389680955 ], [ -1.829339033838732, 53.627325454258781 ], [ -1.829384395008186, 53.627325518819397 ], [ -1.829429756177817, 53.62732558336284 ], [ -1.829475117347624, 53.627325647889108 ], [ -1.829520478517605, 53.627325712398161 ], [ -1.829565839687762, 53.627325776890054 ], [ -1.829611200858095, 53.627325841364737 ], [ -1.829656562028604, 53.627325905822232 ], [ -1.829701923199291, 53.627325970262532 ], [ -1.829747284370152, 53.627326034685666 ], [ -1.829792645541191, 53.627326099091597 ], [ -1.829838006712402, 53.627326163480333 ], [ -1.82988336788379, 53.627326227851889 ], [ -1.829928729055354, 53.627326292206249 ], [ -1.829974090227093, 53.627326356543435 ], [ -1.830019451399008, 53.627326420863419 ], [ -1.830064812571097, 53.627326485166236 ], [ -1.830110173743364, 53.627326549451837 ], [ -1.830155534915807, 53.627326613720257 ], [ -1.830200896088422, 53.627326677971496 ], [ -1.830246257261213, 53.627326742205533 ], [ -1.83029161843418, 53.627326806422396 ], [ -1.830336979607325, 53.62732687062207 ], [ -1.830382340780639, 53.62732693480455 ], [ -1.830427701954132, 53.627326998969835 ], [ -1.830473063127799, 53.627327063117932 ], [ -1.830518424301642, 53.62732712724884 ], [ -1.830563785475659, 53.627327191362582 ], [ -1.83060914664985, 53.627327255459114 ], [ -1.830654507824219, 53.627327319538459 ], [ -1.83069986899876, 53.627327383600623 ], [ -1.830745230173476, 53.62732744764557 ], [ -1.830790591348367, 53.627327511673386 ], [ -1.830835952523434, 53.627327575683964 ], [ -1.830881313698675, 53.627327639677354 ], [ -1.83092667487409, 53.627327703653584 ], [ -1.83097203604968, 53.627327767612606 ], [ -1.831017397225444, 53.627327831554453 ], [ -1.83106275840138, 53.627327895479091 ], [ -1.831108119577494, 53.627327959386555 ], [ -1.831153480753783, 53.627328023276839 ], [ -1.831198841930242, 53.62732808714992 ], [ -1.83124420310688, 53.627328151005813 ], [ -1.831289564283688, 53.627328214844511 ], [ -1.831334925460673, 53.627328278666042 ], [ -1.831380286637832, 53.627328342470356 ], [ -1.831425647815165, 53.627328406257497 ], [ -1.831471008992669, 53.627328470027457 ], [ -1.831516370170351, 53.627328533780215 ], [ -1.831561731348204, 53.627328597515785 ], [ -1.831607092526232, 53.627328661234181 ], [ -1.831652453704434, 53.627328724935374 ], [ -1.831697814882809, 53.62732878861938 ], [ -1.83174317606136, 53.627328852286198 ], [ -1.831788537240083, 53.627328915935827 ], [ -1.831833898418977, 53.627328979568283 ], [ -1.83187925959805, 53.627329043183522 ], [ -1.831924620777293, 53.627329106781595 ], [ -1.831969981956709, 53.627329170362472 ], [ -1.8320153431363, 53.627329233926154 ], [ -1.832060704316065, 53.627329297472642 ], [ -1.832106065496002, 53.627329361001962 ], [ -1.832151426676113, 53.62732942451408 ], [ -1.832196787856396, 53.627329488009011 ], [ -1.832242149036853, 53.627329551486746 ], [ -1.832287510217484, 53.627329614947314 ], [ -1.832332871398288, 53.62732967839068 ], [ -1.832378232579264, 53.627329741816858 ], [ -1.832423593760413, 53.627329805225855 ], [ -1.832468954941736, 53.62732986861765 ], [ -1.832514316123228, 53.62732993199225 ], [ -1.832559677304898, 53.627329995349669 ], [ -1.832605038486739, 53.627330058689907 ], [ -1.832650399668755, 53.627330122012957 ], [ -1.832695760850939, 53.627330185318819 ], [ -1.8327411220333, 53.627330248607478 ], [ -1.832786483215831, 53.627330311878971 ], [ -1.832831844398535, 53.627330375133262 ], [ -1.832877205581411, 53.627330438370358 ], [ -1.832922566764465, 53.627330501590272 ], [ -1.832967927947685, 53.627330564792999 ], [ -1.833013289131077, 53.62733062797853 ], [ -1.833058650314644, 53.627330691146881 ], [ -1.833104011498385, 53.627330754298029 ], [ -1.833149372682295, 53.627330817431996 ], [ -1.833194733866377, 53.62733088054879 ], [ -1.833240095050634, 53.627330943648388 ], [ -1.833285456235064, 53.627331006730785 ], [ -1.833330817419663, 53.627331069796 ], [ -1.833376178604435, 53.627331132844013 ], [ -1.833421539789376, 53.627331195874866 ], [ -1.833466900974495, 53.627331258888518 ], [ -1.833512262159784, 53.627331321884967 ], [ -1.833557623345244, 53.627331384864235 ], [ -1.83360287862701, 53.627358412351072 ], [ -1.83364813396661, 53.627385439820699 ], [ -1.833693389364044, 53.627412467273153 ], [ -1.83373864481931, 53.627439494708398 ], [ -1.833783900332404, 53.627466522126497 ], [ -1.833829155903329, 53.627493549527379 ], [ -1.833874411532088, 53.627520576911053 ], [ -1.833919667218678, 53.627547604277581 ], [ -1.8339649229631, 53.627574631626914 ], [ -1.834010178765352, 53.62760165895903 ], [ -1.834055434625443, 53.627628686273972 ], [ -1.834100690543357, 53.627655713571734 ], [ -1.834145946519111, 53.627682740852286 ], [ -1.834191202552695, 53.627709768115686 ], [ -1.834236458644109, 53.627736795361855 ], [ -1.834281714793359, 53.627763822590872 ], [ -1.834326971000441, 53.6277908498027 ], [ -1.834372227265352, 53.627817876997305 ], [ -1.8344174835881, 53.627844904174751 ], [ -1.834462739968681, 53.627871931334987 ], [ -1.834507996407092, 53.627898958478035 ], [ -1.834553252903338, 53.627925985603923 ], [ -1.834598509457418, 53.627953012712609 ], [ -1.834643766069331, 53.627980039804093 ], [ -1.834689022739076, 53.628007066878411 ], [ -1.834734279466657, 53.628034093935511 ], [ -1.834779536252069, 53.628061120975438 ], [ -1.834824793095318, 53.628088147998177 ], [ -1.834870049996396, 53.628115175003728 ], [ -1.834915306955313, 53.628142201992077 ], [ -1.83496056397206, 53.628169228963252 ], [ -1.835005821046644, 53.628196255917224 ], [ -1.835051078179059, 53.628223282854009 ], [ -1.83509633536931, 53.62825030977362 ], [ -1.835141592617395, 53.628277336676028 ], [ -1.835186849923316, 53.628304363561249 ], [ -1.835232107287071, 53.628331390429288 ], [ -1.835277364708663, 53.628358417280126 ], [ -1.835322622188086, 53.628385444113789 ], [ -1.835367879725344, 53.62841247093025 ], [ -1.83541313732044, 53.628439497729524 ], [ -1.83545839497337, 53.628466524511609 ], [ -1.835503652684134, 53.628493551276506 ], [ -1.835548910452732, 53.628520578024187 ], [ -1.835594168279164, 53.628547604754729 ], [ -1.835639426163437, 53.628574631468027 ], [ -1.83568478868709, 53.62857469364225 ], [ -1.83573015121091, 53.628574755799256 ], [ -1.835775513734898, 53.628574817939089 ], [ -1.83582087625906, 53.62857488006172 ], [ -1.835866238783388, 53.628574942167162 ], [ -1.835911601307885, 53.628575004255424 ], [ -1.835956963832554, 53.628575066326505 ], [ -1.836002326357391, 53.628575128380369 ], [ -1.836047688882397, 53.628575190417052 ], [ -1.836093051407573, 53.628575252436555 ], [ -1.836138309640551, 53.628602278961409 ], [ -1.836183567931363, 53.628629305469076 ], [ -1.836228826280013, 53.628656331959526 ], [ -1.836274084686498, 53.628683358432816 ], [ -1.836319343150817, 53.62871038488889 ], [ -1.836364601672976, 53.628737411327791 ], [ -1.836409964372843, 53.628737473227332 ], [ -1.836455327072877, 53.628737535109686 ], [ -1.836500585711042, 53.628764561497121 ], [ -1.836545948440336, 53.628764623345155 ], [ -1.836591311169794, 53.628764685175994 ], [ -1.836636673899426, 53.628764746989638 ], [ -1.836681932682688, 53.628791773308514 ], [ -1.836727295441573, 53.628791835087839 ], [ -1.836772658200626, 53.628791896849982 ], [ -1.836818020959842, 53.628791958594938 ], [ -1.836863383719232, 53.628792020322713 ], [ -1.836908746478792, 53.628792082033272 ], [ -1.836954109238515, 53.628792143726663 ], [ -1.836999471998414, 53.628792205402846 ], [ -1.837044834758472, 53.628792267061854 ], [ -1.837090197518707, 53.628792328703668 ], [ -1.837135560279107, 53.628792390328293 ], [ -1.837180923039671, 53.628792451935716 ], [ -1.837226285800408, 53.62879251352598 ], [ -1.837271648561312, 53.628792575099027 ], [ -1.83731701132238, 53.628792636654893 ], [ -1.837362374083618, 53.628792698193578 ], [ -1.837407736845026, 53.628792759715054 ], [ -1.837453099606602, 53.628792821219363 ], [ -1.837498462368344, 53.62879288270647 ], [ -1.837543825130255, 53.628792944176382 ], [ -1.837589187892331, 53.62879300562912 ], [ -1.837634550654579, 53.628793067064663 ], [ -1.837679913416992, 53.628793128483004 ], [ -1.837725276179572, 53.628793189884163 ], [ -1.837770638942321, 53.628793251268135 ], [ -1.837816001705236, 53.628793312634912 ], [ -1.83786136446832, 53.6287933739845 ], [ -1.837906727231569, 53.628793435316908 ], [ -1.837952089994988, 53.62879349663212 ], [ -1.837997452758573, 53.628793557930138 ], [ -1.838042815522326, 53.628793619210974 ], [ -1.838088178286245, 53.628793680474615 ], [ -1.838133541050331, 53.628793741721068 ], [ -1.838178903814585, 53.628793802950341 ], [ -1.838224266579007, 53.628793864162411 ], [ -1.838269629343594, 53.6287939253573 ], [ -1.838314992108349, 53.628793986534994 ], [ -1.83836035487327, 53.6287940476955 ], [ -1.838405717638359, 53.628794108838797 ], [ -1.838451080403613, 53.628794169964927 ], [ -1.838496443169037, 53.628794231073876 ], [ -1.838541805934625, 53.628794292165615 ], [ -1.838587168700379, 53.628794353240188 ], [ -1.838632531466302, 53.628794414297545 ], [ -1.83867789423239, 53.62879447533772 ], [ -1.838723256998646, 53.628794536360701 ], [ -1.838768619765068, 53.628794597366515 ], [ -1.838813982531653, 53.628794658355119 ], [ -1.838859345298409, 53.628794719326542 ], [ -1.83890470806533, 53.628794780280771 ], [ -1.838950070832417, 53.628794841217811 ], [ -1.83899543359967, 53.62879490213767 ], [ -1.839040796367088, 53.62879496304032 ], [ -1.839086159134675, 53.628795023925797 ], [ -1.839131521902427, 53.628795084794078 ], [ -1.839176884670344, 53.628795145645171 ], [ -1.839222247438428, 53.628795206479069 ], [ -1.839267610206678, 53.628795267295786 ], [ -1.839312972975093, 53.6287953280953 ], [ -1.839358335743675, 53.628795388877634 ], [ -1.839403698512422, 53.628795449642787 ], [ -1.839449061281335, 53.628795510390745 ], [ -1.839494424050413, 53.628795571121508 ], [ -1.839539786819658, 53.628795631835082 ], [ -1.839585149589066, 53.628795692531476 ], [ -1.839630512358643, 53.628795753210667 ], [ -1.839675875128386, 53.628795813872671 ], [ -1.839721237898292, 53.628795874517479 ], [ -1.839766600668362, 53.628795935145114 ], [ -1.839811963438603, 53.628795995755553 ], [ -1.839857326209001, 53.628796056348783 ], [ -1.839902688979572, 53.62879611692486 ], [ -1.839948051750306, 53.628796177483714 ], [ -1.839993414521203, 53.628796238025409 ], [ -1.840038777292265, 53.628796298549901 ], [ -1.840084140063497, 53.628796359057191 ], [ -1.84012950283489, 53.628796419547307 ], [ -1.84017486560645, 53.62879648002022 ], [ -1.840220228378171, 53.628796540475953 ], [ -1.840265591150062, 53.628796600914498 ], [ -1.840310953922115, 53.628796661335841 ], [ -1.840356316694333, 53.628796721740017 ], [ -1.840401679466717, 53.62879678212699 ], [ -1.840447042239265, 53.628796842496762 ], [ -1.840492405011978, 53.628796902849366 ], [ -1.840537767784854, 53.628796963184762 ], [ -1.840583130557897, 53.628797023502983 ], [ -1.840628493331104, 53.62879708380401 ], [ -1.840673856104475, 53.628797144087841 ], [ -1.840719218878009, 53.628797204354484 ], [ -1.84076458165171, 53.628797264603939 ], [ -1.840809944425575, 53.628797324836199 ], [ -1.840855307199602, 53.628797385051278 ], [ -1.840900669973797, 53.62879744524917 ], [ -1.840946032748154, 53.628797505429858 ], [ -1.840991395522673, 53.628797565593359 ], [ -1.841036758297359, 53.628797625739686 ], [ -1.841082121072209, 53.628797685868825 ], [ -1.841127483847222, 53.628797745980748 ], [ -1.841172846622399, 53.628797806075504 ], [ -1.841218209397741, 53.628797866153079 ], [ -1.841263572173244, 53.628797926213423 ], [ -1.841308934948915, 53.628797986256608 ], [ -1.841354297724747, 53.628798046282604 ], [ -1.841399660500745, 53.628798106291406 ], [ -1.841445023276905, 53.628798166283005 ], [ -1.841490386053231, 53.628798226257437 ], [ -1.841535748829717, 53.628798286214668 ], [ -1.841581111606368, 53.628798346154717 ], [ -1.841626474383183, 53.628798406077564 ], [ -1.841671837160161, 53.628798465983238 ], [ -1.841717199937301, 53.628798525871694 ], [ -1.841762562714608, 53.628798585742985 ], [ -1.841807925492074, 53.628798645597072 ], [ -1.841853288269708, 53.628798705433987 ], [ -1.841898651047501, 53.628798765253691 ], [ -1.841944013825461, 53.628798825056229 ], [ -1.84198937660358, 53.628798884841565 ], [ -1.842034739381867, 53.628798944609699 ], [ -1.842080102160315, 53.628799004360658 ], [ -1.842125464938923, 53.62879906409443 ], [ -1.842170827717697, 53.628799123811007 ], [ -1.842216190496633, 53.628799183510388 ], [ -1.842261553275732, 53.628799243192582 ], [ -1.842306916054994, 53.628799302857601 ], [ -1.842352278834419, 53.628799362505418 ], [ -1.842397641614006, 53.628799422136048 ], [ -1.842443004393756, 53.628799481749475 ], [ -1.842488367173668, 53.628799541345735 ], [ -1.842533729953745, 53.6287996009248 ], [ -1.842579092733982, 53.628799660486671 ], [ -1.842624455514384, 53.628799720031338 ], [ -1.842669818294945, 53.62879977955884 ], [ -1.842715181075671, 53.628799839069138 ], [ -1.842760543856557, 53.628799898562242 ], [ -1.842805906637607, 53.628799958038172 ], [ -1.84285126941882, 53.628800017496914 ], [ -1.842896632200194, 53.628800076938454 ], [ -1.842941994981731, 53.628800136362798 ], [ -1.842987357763427, 53.628800195769962 ], [ -1.843032720545289, 53.628800255159945 ], [ -1.84307808332731, 53.628800314532718 ], [ -1.843123446109496, 53.628800373888318 ], [ -1.843168808891841, 53.628800433226736 ], [ -1.84321417167435, 53.628800492547946 ], [ -1.843259534457021, 53.62880055185196 ], [ -1.843304897239852, 53.628800611138807 ], [ -1.843350260022846, 53.628800670408438 ], [ -1.843395622806, 53.628800729660917 ], [ -1.843441085227049, 53.628773824364949 ], [ -1.843486547590258, 53.628746919051522 ], [ -1.843532009895632, 53.628720013720695 ], [ -1.843577372592677, 53.628720072904237 ], [ -1.843622735289886, 53.628720132070555 ], [ -1.84366809798726, 53.628720191219713 ], [ -1.843713460684789, 53.628720250351677 ], [ -1.843758823382483, 53.628720309466424 ], [ -1.843804186080335, 53.628720368563997 ], [ -1.843849548778353, 53.628720427644389 ], [ -1.843895010824592, 53.628693522175404 ], [ -1.84394037349401, 53.628693581221341 ], [ -1.843985736163593, 53.628693640250098 ], [ -1.844031098833335, 53.628693699261675 ], [ -1.844076362270843, 53.628720722788479 ], [ -1.844121625766193, 53.628747746298082 ], [ -1.844166889319375, 53.628774769790496 ], [ -1.844212152930393, 53.628801793265723 ], [ -1.844257416599249, 53.628828816723725 ], [ -1.844302680325943, 53.628855840164547 ], [ -1.844347944110472, 53.628882863588146 ], [ -1.84434784505046, 53.628909828120072 ], [ -1.844347745990293, 53.628936792651857 ], [ -1.844347646929965, 53.628963757183506 ], [ -1.844347547869473, 53.62899072171507 ], [ -1.84439281182687, 53.629017745121232 ], [ -1.844438075842106, 53.629044768510184 ], [ -1.844483339915175, 53.629071791881969 ], [ -1.844528604046085, 53.629098815236546 ], [ -1.84457386823483, 53.629125838573906 ], [ -1.844619132481415, 53.629152861894106 ], [ -1.844664396785836, 53.629179885197075 ], [ -1.844709661148094, 53.629206908482878 ], [ -1.844755024369856, 53.629206967220497 ], [ -1.844800288819035, 53.629233990471967 ], [ -1.844845553326047, 53.629261013706227 ], [ -1.844845454581897, 53.629287978237045 ], [ -1.84489071917551, 53.629315001454046 ], [ -1.84493598382696, 53.629342024653845 ], [ -1.844981445851829, 53.629315118775061 ], [ -1.845026809190228, 53.629315177409779 ], [ -1.845072271128498, 53.629288271496314 ], [ -1.845117733008935, 53.629261365565441 ], [ -1.845163096289977, 53.629261424148481 ], [ -1.845208459571178, 53.629261482714341 ], [ -1.845253822852538, 53.629261541262977 ], [ -1.845299186134059, 53.629261599794447 ], [ -1.845344549415738, 53.629261658308721 ], [ -1.845389912697576, 53.6292617168058 ], [ -1.845435275979576, 53.629261775285698 ], [ -1.845480639261735, 53.629261833748423 ], [ -1.845526100854257, 53.629234927662111 ], [ -1.845571562388942, 53.629208021558398 ], [ -1.845617023865787, 53.62918111543727 ], [ -1.845662485284795, 53.629154209298676 ], [ -1.845707946645965, 53.629127303142681 ], [ -1.845753407949298, 53.629100396969264 ], [ -1.845798869194793, 53.629073490778403 ], [ -1.845844330382451, 53.629046584570112 ], [ -1.845889791512273, 53.629019678344406 ], [ -1.845935252584254, 53.62899277210127 ], [ -1.845980713598404, 53.628965865840719 ], [ -1.846026174554711, 53.628938959562724 ], [ -1.846071635453185, 53.628912053267307 ], [ -1.84611709629382, 53.628885146954481 ], [ -1.846162459173504, 53.628885205158532 ], [ -1.846207822053346, 53.628885263345403 ], [ -1.846253184933351, 53.628885321515092 ], [ -1.846298547813513, 53.628885379667572 ], [ -1.84634381290623, 53.628912402337306 ], [ -1.846389078056787, 53.628939424989852 ], [ -1.84643434326518, 53.628966447625174 ], [ -1.846479608531411, 53.628993470243323 ], [ -1.846479510829931, 53.629020434777438 ], [ -1.846479413128296, 53.629047399311411 ], [ -1.846479315426501, 53.629074363845305 ], [ -1.846479217724547, 53.629101328379029 ], [ -1.846479120022436, 53.629128292912675 ], [ -1.846479022320164, 53.629155257446151 ], [ -1.846478924617734, 53.629182221979548 ], [ -1.846478826915149, 53.629209186512782 ], [ -1.8464787292124, 53.629236151045916 ], [ -1.846478631509499, 53.629263115578937 ], [ -1.846478533806435, 53.629290080111815 ], [ -1.846478436103217, 53.62931704464458 ], [ -1.846478338399834, 53.629344009177238 ], [ -1.846478240696296, 53.629370973709747 ], [ -1.8464781429926, 53.62939793824215 ], [ -1.846478045288745, 53.629424902774431 ], [ -1.846477947584731, 53.629451867306585 ], [ -1.846477849880557, 53.629478831838611 ], [ -1.846477752176227, 53.629505796370523 ], [ -1.84647765447174, 53.629532760902322 ], [ -1.846477556767095, 53.629559725433971 ], [ -1.846477459062286, 53.629586689965514 ], [ -1.846522725019089, 53.629613712565003 ], [ -1.84656799103373, 53.629640735147312 ], [ -1.846613257106211, 53.629667757712404 ], [ -1.84665852323653, 53.629694780260309 ], [ -1.846703789424689, 53.629721802791011 ], [ -1.84674905567069, 53.62974882530451 ], [ -1.84679432197453, 53.629775847800808 ], [ -1.846839588336209, 53.629802870279924 ], [ -1.846884854755729, 53.629829892741839 ], [ -1.846930121233086, 53.629856915186529 ], [ -1.846975387768287, 53.629883937614053 ], [ -1.847020654361323, 53.629910960024361 ], [ -1.847065921012204, 53.629937982417481 ], [ -1.847111187720923, 53.629965004793377 ], [ -1.847156454487483, 53.629992027152085 ], [ -1.847201721311887, 53.63001904949359 ], [ -1.847246988194128, 53.630046071817908 ], [ -1.847292255134208, 53.630073094125031 ], [ -1.847337522132133, 53.630100116414937 ], [ -1.8473827891879, 53.630127138687655 ], [ -1.847428056301503, 53.630154160943164 ], [ -1.847473323472948, 53.630181183181485 ], [ -1.847518590702237, 53.630208205402596 ], [ -1.847563857989369, 53.630235227606505 ], [ -1.847609125334337, 53.630262249793212 ], [ -1.84765439273715, 53.630289271962731 ], [ -1.847699660197803, 53.630316294115055 ], [ -1.847744927716301, 53.630343316250155 ], [ -1.847790195292636, 53.630370338368074 ], [ -1.847790098421783, 53.630397302897585 ], [ -1.847790001550774, 53.630424267426974 ], [ -1.84778990467961, 53.630451231956243 ], [ -1.847789807808284, 53.630478196485399 ], [ -1.847789710936806, 53.630505161014398 ], [ -1.847789614065168, 53.630532125543304 ], [ -1.847789517193374, 53.63055909007209 ], [ -1.847789420321422, 53.630586054600741 ], [ -1.847789323449314, 53.630613019129278 ], [ -1.847789226577049, 53.630639983657673 ], [ -1.847789129704625, 53.630666948185969 ], [ -1.847789032832046, 53.630693912714143 ], [ -1.847788935959309, 53.630720877242176 ], [ -1.847788839086414, 53.630747841770095 ], [ -1.847743377303593, 53.630774748708717 ], [ -1.847697915462924, 53.630801655629909 ], [ -1.847743183499173, 53.630828677763851 ], [ -1.84774308659673, 53.630855642291209 ], [ -1.847788354719588, 53.630882664407864 ], [ -1.847833622900288, 53.630909686507344 ], [ -1.847878987954985, 53.630909744062436 ], [ -1.847924256222609, 53.63093676612754 ], [ -1.847969524548077, 53.630963788175457 ], [ -1.848014792931388, 53.630990810206193 ], [ -1.848060061372546, 53.631017832219698 ], [ -1.848105329871545, 53.631044854216022 ], [ -1.84815059842839, 53.631071876195143 ], [ -1.848195867043081, 53.631098898157063 ], [ -1.848241232301483, 53.631098955575006 ], [ -1.848286597560044, 53.631099012975767 ], [ -1.848331866290739, 53.631126034886222 ], [ -1.848377231578535, 53.63112609225265 ], [ -1.848422596866485, 53.631126149601897 ], [ -1.848467962154594, 53.631126206933935 ], [ -1.848513327442863, 53.631126264248792 ], [ -1.848558692731285, 53.631126321546454 ], [ -1.848604058019865, 53.631126378826934 ], [ -1.848649423308599, 53.63112643609022 ], [ -1.848694788597491, 53.631126493336311 ], [ -1.848740153886538, 53.631126550565206 ], [ -1.84878551917574, 53.631126607776935 ], [ -1.848830884465102, 53.631126664971454 ], [ -1.848876249754618, 53.631126722148778 ], [ -1.848921615044288, 53.631126779308907 ], [ -1.848966980334119, 53.631126836451848 ], [ -1.849012345624101, 53.631126893577601 ], [ -1.849057710914241, 53.631126950686188 ], [ -1.849103076204535, 53.63112700777755 ], [ -1.849148441494988, 53.631127064851732 ], [ -1.849193806785593, 53.631127121908712 ], [ -1.849239172076358, 53.631127178948532 ], [ -1.849284537367274, 53.631127235971128 ], [ -1.849329902658349, 53.631127292976544 ], [ -1.849375172086608, 53.631154314492818 ], [ -1.849420441572711, 53.631181335991897 ], [ -1.849465711116659, 53.631208357473774 ], [ -1.849510980718452, 53.63123537893842 ], [ -1.849556250378091, 53.6312624003859 ], [ -1.849601520095572, 53.631289421816177 ], [ -1.849646789870902, 53.631316443229245 ], [ -1.849692059704074, 53.631343464625104 ], [ -1.849737329595093, 53.63137048600376 ], [ -1.849782599543956, 53.631397507365207 ], [ -1.849827869550667, 53.631424528709466 ], [ -1.849873139615221, 53.631451550036537 ], [ -1.849918409737623, 53.631478571346378 ], [ -1.849963679917869, 53.631505592639023 ], [ -1.850008950155961, 53.631532613914487 ], [ -1.850054220451898, 53.631559635172714 ], [ -1.850099490805683, 53.631586656413759 ], [ -1.850144761217317, 53.631613677637574 ], [ -1.850190031686793, 53.63164069884423 ], [ -1.850235302214117, 53.631667720033668 ], [ -1.850280572799285, 53.631694741205877 ], [ -1.8503258434423, 53.631721762360918 ], [ -1.850371114143164, 53.631748783498736 ], [ -1.850416384901874, 53.631775804619359 ], [ -1.850461655718431, 53.631802825722765 ], [ -1.850506926592834, 53.631829846808976 ], [ -1.850552197525085, 53.631856867878 ], [ -1.850597468515182, 53.631883888929806 ], [ -1.850642739563128, 53.631910909964418 ], [ -1.850688010668919, 53.631937930981813 ], [ -1.850733281832559, 53.631964951982006 ], [ -1.850778553054045, 53.631991972965004 ], [ -1.85082382433338, 53.632018993930799 ], [ -1.850869095670563, 53.632046014879386 ], [ -1.850914367065591, 53.63207303581077 ], [ -1.85095963851847, 53.632100056724944 ], [ -1.851004910029196, 53.632127077621945 ], [ -1.85105018159777, 53.632154098501694 ], [ -1.85109545322419, 53.632181119364269 ], [ -1.851140724908462, 53.632208140209642 ], [ -1.85118599665058, 53.632235161037791 ], [ -1.851231268450549, 53.632262181848759 ], [ -1.851276540308363, 53.632289202642511 ], [ -1.851321812224027, 53.63231622341906 ], [ -1.851367084197541, 53.632343244178401 ], [ -1.851412356228902, 53.63237026492056 ], [ -1.851457628318113, 53.632397285645489 ], [ -1.851502900465172, 53.632424306353222 ], [ -1.851548172670081, 53.632451327043761 ], [ -1.851593444932838, 53.632478347717075 ], [ -1.851638717253447, 53.632505368373195 ], [ -1.851683989631902, 53.63253238901212 ], [ -1.851729262068208, 53.632559409633821 ], [ -1.851774534562363, 53.632586430238341 ], [ -1.851819807114369, 53.632613450825652 ], [ -1.851819712804787, 53.632640415349954 ], [ -1.85181961849506, 53.632667379874135 ], [ -1.851819524185174, 53.632694344398182 ], [ -1.851819429875138, 53.632721308922143 ], [ -1.851819335564948, 53.632748273445955 ], [ -1.851819241254604, 53.632775237969668 ], [ -1.851819146944109, 53.632802202493231 ], [ -1.85181905263346, 53.632829167016673 ], [ -1.851818958322658, 53.632856131540009 ], [ -1.851818864011703, 53.632883096063203 ], [ -1.851818769700595, 53.632910060586291 ], [ -1.851818675389334, 53.632937025109243 ], [ -1.851818581077919, 53.632963989632088 ], [ -1.851818486766353, 53.632990954154813 ], [ -1.851818392454633, 53.633017918677396 ], [ -1.85181829814276, 53.633044883199872 ], [ -1.851818203830734, 53.633071847722213 ], [ -1.851818109518554, 53.633098812244455 ], [ -1.851818015206223, 53.633125776766562 ], [ -1.851817920893741, 53.633152741288541 ], [ -1.8518178265811, 53.633179705810406 ], [ -1.851817732268311, 53.633206670332136 ], [ -1.851817637955365, 53.633233634853745 ], [ -1.85181754364227, 53.633260599375234 ], [ -1.851817449329019, 53.633287563896616 ], [ -1.851817355015618, 53.63331452841787 ], [ -1.851817260702062, 53.633341492939003 ], [ -1.851817166388354, 53.633368457459994 ], [ -1.851817072074492, 53.633395421980865 ], [ -1.851816977760478, 53.633422386501636 ], [ -1.85181688344631, 53.633449351022264 ], [ -1.85181678913199, 53.633476315542794 ], [ -1.851816694817517, 53.633503280063167 ], [ -1.85181660050289, 53.633530244583433 ], [ -1.851816506188111, 53.633557209103586 ], [ -1.851816411873178, 53.633584173623603 ], [ -1.851816317558093, 53.633611138143507 ], [ -1.851816223242855, 53.633638102663298 ], [ -1.851816128927464, 53.633665067182932 ], [ -1.851816034611919, 53.633692031702473 ], [ -1.851815940296222, 53.633718996221887 ], [ -1.851815845980372, 53.633745960741173 ], [ -1.851815751664368, 53.633772925260345 ], [ -1.851815657348212, 53.633799889779397 ], [ -1.851815563031903, 53.633826854298313 ], [ -1.851815468715441, 53.633853818817123 ], [ -1.851815374398827, 53.633880783335805 ], [ -1.851815280082058, 53.633907747854352 ], [ -1.851815185765138, 53.633934712372785 ], [ -1.851815091448061, 53.633961676891104 ], [ -1.851814997130837, 53.633988641409282 ], [ -1.851814902813455, 53.634015605927353 ], [ -1.851814808495923, 53.634042570445303 ], [ -1.851814714178238, 53.63406953496311 ], [ -1.851814619860398, 53.634096499480812 ], [ -1.851814525542405, 53.634123463998378 ], [ -1.851814431224263, 53.634150428515838 ], [ -1.851814336905963, 53.634177393033177 ], [ -1.851814242587512, 53.634204357550381 ], [ -1.851814148268909, 53.634231322067457 ], [ -1.85181405395015, 53.634258286584426 ], [ -1.851859328315181, 53.6342853071504 ], [ -1.851859234025049, 53.634312271667191 ], [ -1.851859139734759, 53.634339236183827 ], [ -1.851859045444319, 53.634366200700349 ], [ -1.85190431995353, 53.634393221248942 ], [ -1.851949594520598, 53.634420241780312 ], [ -1.851994869145521, 53.634447262294458 ], [ -1.852040143828299, 53.634474282791437 ], [ -1.852085418568937, 53.634501303271165 ], [ -1.852130693367429, 53.634528323733711 ], [ -1.852175968223779, 53.63455534417907 ], [ -1.852221243137985, 53.634582364607176 ], [ -1.852266518110047, 53.634609385018116 ], [ -1.852311793139966, 53.634636405411833 ], [ -1.852357068227739, 53.634663425788354 ], [ -1.852402343373371, 53.63469044614768 ], [ -1.852447618576861, 53.634717466489768 ], [ -1.852492893838206, 53.634744486814668 ], [ -1.85253816915741, 53.634771507122359 ], [ -1.852583444534472, 53.634798527412855 ], [ -1.85262871996939, 53.634825547686106 ], [ -1.852673995462164, 53.634852567942183 ], [ -1.852719271012799, 53.63487958818105 ], [ -1.852764546621289, 53.634906608402716 ], [ -1.852809822287638, 53.634933628607158 ], [ -1.852855098011842, 53.63496064879439 ], [ -1.852900373793909, 53.634987668964442 ], [ -1.852945649633831, 53.63501468911727 ], [ -1.852990925531611, 53.635041709252896 ], [ -1.85303620148725, 53.635068729371291 ], [ -1.853081477500748, 53.635095749472505 ], [ -1.853126753572101, 53.635122769556503 ], [ -1.853172029701318, 53.635149789623306 ], [ -1.853217305888389, 53.635176809672892 ], [ -1.853262582133321, 53.635203829705269 ], [ -1.853307858436109, 53.635230849720458 ], [ -1.853353134796759, 53.63525786971843 ], [ -1.853398411215267, 53.635284889699179 ], [ -1.853443687691634, 53.635311909662718 ], [ -1.85348896422586, 53.635338929609063 ], [ -1.853534240817946, 53.635365949538198 ], [ -1.853579517467891, 53.63539296945013 ], [ -1.853624794175692, 53.63541998934484 ], [ -1.85367007094136, 53.635447009222361 ], [ -1.853715347764882, 53.63547402908268 ], [ -1.853760624646265, 53.635501048925782 ], [ -1.853805901585508, 53.635528068751661 ], [ -1.853851178582608, 53.635555088560338 ], [ -1.853896455637574, 53.635582108351819 ], [ -1.853941732750397, 53.635609128126077 ], [ -1.85398700992108, 53.635636147883133 ], [ -1.854032287149623, 53.635663167622987 ], [ -1.854077564436029, 53.635690187345624 ], [ -1.854122841780291, 53.635717207051052 ], [ -1.854168119182416, 53.635744226739291 ], [ -1.854213396642402, 53.635771246410314 ], [ -1.854258674160249, 53.635798266064121 ], [ -1.854303951735955, 53.635825285700719 ], [ -1.854349229369522, 53.635852305320107 ], [ -1.854394507060952, 53.6358793249223 ], [ -1.854439784810243, 53.635906344507262 ], [ -1.854485062617392, 53.635933364075036 ], [ -1.854530340482407, 53.635960383625587 ], [ -1.854575618405281, 53.635987403158936 ], [ -1.854620896386017, 53.636014422675075 ], [ -1.854666174424618, 53.636041442174012 ], [ -1.854711452521074, 53.636068461655739 ], [ -1.854756730675396, 53.636095481120257 ], [ -1.854802008887578, 53.636122500567552 ], [ -1.854756545777642, 53.636149410144228 ], [ -1.854756453328541, 53.636176374656038 ], [ -1.854710990131666, 53.636203284215114 ], [ -1.854665526876923, 53.636230193756781 ], [ -1.854620156100665, 53.63623013876974 ], [ -1.854574785324555, 53.636230083765497 ], [ -1.854529414548598, 53.636230028744052 ], [ -1.854484043772791, 53.636229973705419 ], [ -1.854438672997133, 53.63622991864959 ], [ -1.854393302221625, 53.636229863576574 ], [ -1.854347838736339, 53.636256772997314 ], [ -1.854302375193186, 53.636283682400631 ], [ -1.85425691159217, 53.636310591786518 ], [ -1.854211447933296, 53.636337501154976 ], [ -1.854165984216558, 53.636364410506026 ], [ -1.854120520441953, 53.636391319839646 ], [ -1.854120427586462, 53.636418284349588 ], [ -1.854074963724915, 53.636445193665608 ], [ -1.854074870840191, 53.636472158175266 ], [ -1.8540294068917, 53.636499067473679 ], [ -1.85402931397774, 53.636526031983038 ], [ -1.853983849942303, 53.636552941263851 ], [ -1.853983756999112, 53.636579905772891 ], [ -1.853938292876728, 53.636606815036124 ], [ -1.853938199904306, 53.63663377954488 ], [ -1.853892735694973, 53.636660688790485 ], [ -1.853892642693316, 53.636687653298935 ], [ -1.853892549691508, 53.636714617807279 ], [ -1.853847085366148, 53.636741527035106 ], [ -1.853801620982923, 53.636768436245504 ], [ -1.853756156541835, 53.636795345438486 ], [ -1.853710692042882, 53.636822254614053 ], [ -1.853710598924592, 53.636849219121558 ], [ -1.853665134338689, 53.636876128279496 ], [ -1.853619669694925, 53.636903037420034 ], [ -1.853574204993293, 53.636929946543127 ], [ -1.853528740233797, 53.636956855648805 ], [ -1.853483275416439, 53.636983764737053 ], [ -1.853437810541213, 53.637010673807893 ], [ -1.853392345608124, 53.637037582861289 ], [ -1.853346880617171, 53.637064491897263 ], [ -1.85330141556835, 53.637091400915814 ], [ -1.853301322188152, 53.637118365421593 ], [ -1.853301228807806, 53.637145329927264 ], [ -1.853301135427308, 53.637172294432808 ], [ -1.853301042046655, 53.637199258938232 ], [ -1.853300948665852, 53.637226223443541 ], [ -1.853300855284901, 53.63725318794873 ], [ -1.85330076190379, 53.637280152453798 ], [ -1.853300668522538, 53.637307116958731 ], [ -1.853300575141129, 53.637334081463543 ], [ -1.853300481759571, 53.637361045968241 ], [ -1.853300388377859, 53.637388010472812 ], [ -1.853254922951244, 53.637414919471993 ], [ -1.853209457466764, 53.637441828453738 ], [ -1.853163991924416, 53.637468737418054 ], [ -1.853118526324202, 53.637495646364947 ], [ -1.853118432825999, 53.6375226108687 ], [ -1.853072967138834, 53.637549519798 ], [ -1.853072873611392, 53.637576484301441 ], [ -1.853072780083802, 53.637603448804725 ], [ -1.853118058831672, 53.637630468882442 ], [ -1.853163431107437, 53.637630524439729 ], [ -1.853208709942261, 53.637657544483055 ], [ -1.853208616501014, 53.637684508986169 ], [ -1.853208523059622, 53.637711473489162 ], [ -1.853208429618071, 53.637738437992049 ], [ -1.853162963755789, 53.637765346954417 ], [ -1.853117497835636, 53.637792255899384 ], [ -1.85307212538642, 53.637792200324562 ], [ -1.853026752937357, 53.637792144732558 ], [ -1.852981380488446, 53.637792089123337 ], [ -1.852936008039684, 53.63779203349695 ], [ -1.852890635591074, 53.637791977853347 ], [ -1.852845263142619, 53.637791922192555 ], [ -1.852799890694315, 53.637791866514561 ], [ -1.852754518246163, 53.63779181081938 ], [ -1.852709145798163, 53.637791755107017 ], [ -1.852663773350311, 53.637791699377438 ], [ -1.852618400902616, 53.637791643630671 ], [ -1.852573028455072, 53.637791587866715 ], [ -1.852572934607997, 53.637818552368458 ], [ -1.852572840760764, 53.637845516870065 ], [ -1.852572746913384, 53.637872481371559 ], [ -1.852572653065849, 53.637899445872939 ], [ -1.852572559218163, 53.637926410374185 ] ] } }
]
}
