{
"type": "FeatureCollection",
"crs": { "type": "name", "properties": { "name": "urn:ogc:def:crs:OGC:1.3:CRS84" } },
"features": [
{ "type": "Feature", "properties": { }, "geometry": { "type": "LineString", "coordinates": [ [ -1.873829677398342, 53.645554667853126 ], [ -1.873784296578701, 53.645554620123143 ], [ -1.873738915759191, 53.645554572375943 ], [ -1.873693534939812, 53.645554524611562 ], [ -1.873648154120562, 53.645554476829965 ], [ -1.873602773301447, 53.645554429031193 ], [ -1.873557392482455, 53.645554381215199 ], [ -1.873512011663596, 53.64555433338203 ], [ -1.873466630844869, 53.645554285531631 ], [ -1.873421250026274, 53.645554237664044 ], [ -1.873375869207811, 53.645554189779254 ], [ -1.873330488389473, 53.645554141877263 ], [ -1.873285107571269, 53.64555409395809 ], [ -1.873239726753197, 53.645554046021687 ], [ -1.873194345935253, 53.645553998068117 ], [ -1.87314896511744, 53.645553950097323 ], [ -1.873103584299759, 53.645553902109327 ], [ -1.87305820348221, 53.645553854104136 ], [ -1.873012822664794, 53.645553806081757 ], [ -1.872967441847505, 53.645553758042162 ], [ -1.872922061030351, 53.645553709985371 ], [ -1.872876680213325, 53.645553661911386 ], [ -1.872831299396431, 53.645553613820198 ], [ -1.87278591857967, 53.645553565711815 ], [ -1.872740537763039, 53.645553517586215 ], [ -1.87269515694654, 53.645553469443428 ], [ -1.872649776130173, 53.645553421283431 ], [ -1.872604395313938, 53.645553373106246 ], [ -1.872559014497832, 53.645553324911866 ], [ -1.872513633681857, 53.645553276700269 ], [ -1.872468252866017, 53.645553228471492 ], [ -1.872422872050306, 53.645553180225491 ], [ -1.87237749123473, 53.645553131962295 ], [ -1.872332110419283, 53.645553083681911 ], [ -1.87228672960397, 53.64555303538431 ], [ -1.872241348788787, 53.645552987069536 ], [ -1.872195967973736, 53.645552938737531 ], [ -1.872150587158818, 53.645552890388352 ], [ -1.872105206344031, 53.645552842021957 ], [ -1.87205982552938, 53.645552793638366 ], [ -1.872014444714856, 53.645552745237573 ], [ -1.871969063900465, 53.645552696819564 ], [ -1.871923683086211, 53.645552648384388 ], [ -1.871878302272083, 53.645552599931996 ], [ -1.871832921458089, 53.645552551462401 ], [ -1.871787540644231, 53.645552502975619 ], [ -1.871742159830501, 53.645552454471613 ], [ -1.871696779016905, 53.645552405950411 ], [ -1.871651398203444, 53.645552357412029 ], [ -1.871606017390111, 53.645552308856438 ], [ -1.871560636576912, 53.645552260283644 ], [ -1.871515255763847, 53.645552211693655 ], [ -1.871469874950914, 53.64555216308645 ], [ -1.871424494138115, 53.645552114462063 ], [ -1.871379113325449, 53.645552065820461 ], [ -1.871333732512913, 53.645552017161663 ], [ -1.871288351700511, 53.645551968485677 ], [ -1.871242970888243, 53.645551919792467 ], [ -1.87119759007611, 53.645551871082091 ], [ -1.871152209264104, 53.645551822354498 ], [ -1.871106828452233, 53.645551773609697 ], [ -1.871061447640501, 53.645551724847699 ], [ -1.871016066828895, 53.645551676068507 ], [ -1.870970686017425, 53.645551627272106 ], [ -1.870925305206089, 53.64555157845853 ], [ -1.870879924394884, 53.645551529627724 ], [ -1.870834543583815, 53.645551480779723 ], [ -1.87078916277288, 53.645551431914527 ], [ -1.870743781962073, 53.645551383032128 ], [ -1.870698401151405, 53.645551334132534 ], [ -1.870653020340871, 53.645551285215745 ], [ -1.870607639530466, 53.645551236281726 ], [ -1.870562258720198, 53.645551187330547 ], [ -1.870516877910062, 53.645551138362165 ], [ -1.870471497100062, 53.645551089376553 ], [ -1.870426116290195, 53.645551040373753 ], [ -1.87038073548046, 53.645550991353765 ], [ -1.870335354670859, 53.645550942316575 ], [ -1.870289973861395, 53.645550893262168 ], [ -1.870244593052061, 53.645550844190566 ], [ -1.870199212242864, 53.645550795101762 ], [ -1.870153831433801, 53.645550745995763 ], [ -1.87010845062487, 53.645550696872583 ], [ -1.870063069816071, 53.645550647732179 ], [ -1.87001768900741, 53.64555059857458 ], [ -1.869972308198885, 53.645550549399772 ], [ -1.869926927390492, 53.645550500207776 ], [ -1.869881546582234, 53.645550450998577 ], [ -1.869836165774108, 53.645550401772176 ], [ -1.869790784966117, 53.645550352528566 ], [ -1.869745404158264, 53.645550303267783 ], [ -1.869700023350543, 53.645550253989782 ], [ -1.869654642542957, 53.64555020469458 ], [ -1.869609261735505, 53.645550155382168 ], [ -1.869563880928188, 53.645550106052582 ], [ -1.869518500121004, 53.64555005670578 ], [ -1.869473119313958, 53.645550007341768 ], [ -1.869427738507047, 53.645549957960583 ], [ -1.869382357700268, 53.645549908562181 ], [ -1.869336976893625, 53.64554985914657 ], [ -1.869291596087117, 53.645549809713771 ], [ -1.869246215280744, 53.645549760263776 ], [ -1.869200834474506, 53.645549710796566 ], [ -1.869155453668403, 53.645549661312167 ], [ -1.869110072862435, 53.645549611810573 ], [ -1.869064692056604, 53.645549562291755 ], [ -1.869019311250906, 53.645549512755764 ], [ -1.868973930445342, 53.645549463202578 ], [ -1.868928549639916, 53.645549413632175 ], [ -1.868883168834626, 53.645549364044562 ], [ -1.86883778802947, 53.645549314439755 ], [ -1.86879240722445, 53.64554926481776 ], [ -1.868747026419566, 53.645549215178562 ], [ -1.868701645614816, 53.645549165522148 ], [ -1.8686562648102, 53.645549115848532 ], [ -1.868610884005723, 53.645549066157741 ], [ -1.868565503201382, 53.645549016449735 ], [ -1.868520122397175, 53.645548966724547 ], [ -1.868474741593105, 53.645548916982122 ], [ -1.86842936078917, 53.64554886722253 ], [ -1.86838397998537, 53.645548817445722 ], [ -1.868338599181708, 53.645548767651718 ], [ -1.86829321837818, 53.645548717840512 ], [ -1.86824783757479, 53.645548668012111 ], [ -1.868202456771535, 53.645548618166487 ], [ -1.868157075968416, 53.645548568303703 ], [ -1.868111695165431, 53.645548518423688 ], [ -1.868066314362586, 53.645548468526499 ], [ -1.868020933559877, 53.64554841861208 ], [ -1.867975552757303, 53.645548368680487 ], [ -1.867930171954865, 53.64554831873167 ], [ -1.867884791152563, 53.645548268765666 ], [ -1.867839410350398, 53.645548218782466 ], [ -1.86779402954837, 53.645548168782064 ], [ -1.867748648746478, 53.645548118764466 ], [ -1.867703267944724, 53.645548068729653 ], [ -1.867657887143107, 53.645548018677623 ], [ -1.867612506341624, 53.64554796860844 ], [ -1.867567125540278, 53.645547918522027 ], [ -1.867521744739072, 53.645547868418426 ], [ -1.867476363938001, 53.645547818297615 ], [ -1.867430983137067, 53.645547768159609 ], [ -1.867385602336269, 53.645547718004387 ], [ -1.867340221535609, 53.645547667831991 ], [ -1.867294840735084, 53.645547617642386 ], [ -1.8672494599347, 53.645547567435571 ], [ -1.867204079134449, 53.645547517211575 ], [ -1.867158698334336, 53.645547466970349 ], [ -1.867113317534362, 53.645547416711949 ], [ -1.867067936734525, 53.645547366436361 ], [ -1.867022555934825, 53.645547316143535 ], [ -1.866977175135261, 53.645547265833535 ], [ -1.866931794335836, 53.64554721550634 ], [ -1.866886413536547, 53.645547165161922 ], [ -1.866841032737397, 53.645547114800308 ], [ -1.866795651938384, 53.645547064421493 ], [ -1.866750271139506, 53.645547014025482 ], [ -1.866704890340769, 53.645546963612283 ], [ -1.86665950954217, 53.645546913181867 ], [ -1.866614128743708, 53.645546862734257 ], [ -1.866568747945382, 53.645546812269444 ], [ -1.866523367147196, 53.64554676178745 ], [ -1.866477986349148, 53.64554671128824 ], [ -1.866432605551235, 53.645546660771828 ], [ -1.866387224753463, 53.64554661023822 ], [ -1.866341843955827, 53.645546559687403 ], [ -1.866296463158331, 53.645546509119384 ], [ -1.866251082360971, 53.645546458534177 ], [ -1.866205701563749, 53.645546407931761 ], [ -1.866160320766665, 53.645546357312156 ], [ -1.866114939969724, 53.645546306675342 ], [ -1.866069559172916, 53.645546256021333 ], [ -1.86602417837625, 53.645546205350122 ], [ -1.86597879757972, 53.645546154661702 ], [ -1.865933416783329, 53.645546103956107 ], [ -1.865888035987074, 53.645546053233289 ], [ -1.86584265519096, 53.645546002493283 ], [ -1.865797274394986, 53.645545951736068 ], [ -1.865751893599148, 53.64554590096165 ], [ -1.86570651280345, 53.645545850170038 ], [ -1.865661132007891, 53.64554579936123 ], [ -1.86561575121247, 53.645545748535206 ], [ -1.865570370417188, 53.645545697692 ], [ -1.865524989622046, 53.645545646831593 ], [ -1.865479608827041, 53.645545595953983 ], [ -1.865434142362469, 53.645572509540635 ], [ -1.865388675839994, 53.645599423109871 ], [ -1.865343294987512, 53.645599372180541 ], [ -1.865297828378336, 53.645626285715103 ], [ -1.86525236171127, 53.645653199232228 ], [ -1.865206894986301, 53.645680112731938 ], [ -1.865161428203441, 53.645707026214225 ], [ -1.865116047235867, 53.645706975198713 ], [ -1.865070580366301, 53.645733888646326 ], [ -1.865025113438841, 53.645760802076524 ], [ -1.864979646453488, 53.645787715489284 ], [ -1.864934179410236, 53.645814628884629 ], [ -1.864888712309088, 53.645841542262566 ], [ -1.864843245150045, 53.645868455623066 ], [ -1.864797777933107, 53.64589536896613 ], [ -1.86475231065827, 53.645922282291792 ], [ -1.864706843325538, 53.645949195600018 ], [ -1.864661375934914, 53.645976108890842 ], [ -1.864615908486387, 53.646003022164223 ], [ -1.864570440979966, 53.646029935420181 ], [ -1.864524973415651, 53.646056848658723 ], [ -1.864479505793436, 53.646083761879829 ], [ -1.864434038113326, 53.646110675083527 ], [ -1.864388570375318, 53.646137588269809 ], [ -1.864343102579414, 53.646164501438641 ], [ -1.864297634725613, 53.646191414590064 ], [ -1.864252166813915, 53.646218327724071 ], [ -1.86420669884432, 53.646245240840628 ], [ -1.864161230816825, 53.64627215393979 ], [ -1.864115762731436, 53.646299067021516 ], [ -1.864070294588147, 53.646325980085827 ], [ -1.864024826386961, 53.646352893132693 ], [ -1.863979358127878, 53.646379806162166 ], [ -1.863933889810895, 53.646406719174195 ], [ -1.863888421436017, 53.646433632168801 ], [ -1.863842953003242, 53.646460545145999 ], [ -1.863797484512567, 53.646487458105746 ], [ -1.863752015963992, 53.646514371048092 ], [ -1.863706547357519, 53.646541283972994 ], [ -1.86366107869315, 53.64656819688048 ], [ -1.863615609970883, 53.646595109770537 ], [ -1.863570141190715, 53.646622022643186 ], [ -1.86352467235265, 53.646648935498412 ], [ -1.863479203456682, 53.646675848336209 ], [ -1.863433734502823, 53.646702761156568 ], [ -1.863388265491059, 53.646729673959506 ], [ -1.863342796421396, 53.64675658674502 ], [ -1.863297327293838, 53.646783499513113 ], [ -1.863251858108381, 53.646810412263797 ], [ -1.863206388865019, 53.64683732499703 ], [ -1.863160919563763, 53.646864237712862 ], [ -1.863115450204602, 53.646891150411243 ], [ -1.863069980787548, 53.646918063092208 ], [ -1.86302451131259, 53.646944975755758 ], [ -1.862979041779731, 53.646971888401879 ], [ -1.862933572188976, 53.646998801030577 ], [ -1.862888102540322, 53.647025713641845 ], [ -1.862842632833763, 53.647052626235698 ], [ -1.862797163069308, 53.647079538812108 ], [ -1.862751693246948, 53.647106451371108 ], [ -1.862706223366695, 53.64713336391268 ], [ -1.862660753428536, 53.647160276436814 ], [ -1.862615283432476, 53.647187188943541 ], [ -1.862569813378519, 53.647214101432837 ], [ -1.862524343266662, 53.647241013904697 ], [ -1.862478873096899, 53.647267926359142 ], [ -1.862433402869237, 53.647294838796157 ], [ -1.862387932583677, 53.647321751215749 ], [ -1.862342462240213, 53.647348663617933 ], [ -1.862296991838851, 53.647375576002659 ], [ -1.862251521379584, 53.647402488369991 ], [ -1.862206050862417, 53.647429400719858 ], [ -1.862160580287349, 53.647456313052317 ], [ -1.862115109654379, 53.647483225367353 ], [ -1.862069638963507, 53.647510137664973 ], [ -1.862024168214732, 53.647537049945143 ], [ -1.861978697408059, 53.647563962207911 ], [ -1.861933226543482, 53.647590874453243 ], [ -1.861887755621005, 53.647617786681138 ], [ -1.861842284640624, 53.647644698891632 ], [ -1.861796813602339, 53.647671611084682 ], [ -1.861751342506154, 53.647698523260289 ], [ -1.861705871352066, 53.647725435418501 ], [ -1.861660400140076, 53.64775234755929 ], [ -1.861614928870184, 53.647779259682629 ], [ -1.861569457542388, 53.647806171788552 ], [ -1.861523986156688, 53.647833083877053 ], [ -1.861478514713088, 53.647859995948117 ], [ -1.861433043211585, 53.647886908001766 ], [ -1.86138757165218, 53.647913820037978 ], [ -1.861342100034867, 53.647940732056767 ], [ -1.861296628359653, 53.647967644058134 ], [ -1.861251156626538, 53.647994556042057 ], [ -1.861205684835517, 53.648021468008572 ], [ -1.861160212986595, 53.64804837995765 ], [ -1.861114741079767, 53.648075291889292 ], [ -1.861069269115036, 53.648102203803539 ], [ -1.861023797092401, 53.648129115700335 ], [ -1.860978325011862, 53.648156027579709 ], [ -1.860932852873419, 53.648182939441647 ], [ -1.860887380677076, 53.648209851286168 ], [ -1.860841908422824, 53.648236763113253 ], [ -1.860796436110668, 53.648263674922916 ], [ -1.86075096374061, 53.648290586715156 ], [ -1.860705491312647, 53.648317498489959 ], [ -1.860660018826779, 53.648344410247354 ], [ -1.860614546283003, 53.648371321987305 ], [ -1.860569073681326, 53.64839823370982 ], [ -1.860523601021746, 53.64842514541494 ], [ -1.860478128304258, 53.648452057102595 ], [ -1.860432655528866, 53.648478968772821 ], [ -1.860387182695568, 53.648505880425645 ], [ -1.860341709804365, 53.64853279206104 ], [ -1.860296236855257, 53.648559703678998 ], [ -1.860250763848248, 53.648586615279527 ], [ -1.86020529078333, 53.648613526862647 ], [ -1.860159817660503, 53.648640438428309 ], [ -1.860114344479774, 53.648667349976563 ], [ -1.860068871241138, 53.648694261507387 ], [ -1.860023397944597, 53.648721173020768 ], [ -1.859977924590151, 53.648748084516733 ], [ -1.859932451177799, 53.648774995995261 ], [ -1.859886977707537, 53.64880190745636 ], [ -1.859841504179372, 53.64882881890005 ], [ -1.8597960305933, 53.648855730326289 ], [ -1.859750556949324, 53.648882641735113 ], [ -1.859705083247438, 53.648909553126501 ], [ -1.859659609487649, 53.648936464500473 ], [ -1.859614135669948, 53.648963375857008 ], [ -1.859568661794343, 53.648990287196114 ], [ -1.859523187860833, 53.649017198517797 ], [ -1.859477713869415, 53.649044109822029 ], [ -1.859432239820091, 53.64907102110886 ], [ -1.859386765712856, 53.649097932378261 ], [ -1.859341291547718, 53.649124843630212 ], [ -1.859295817324669, 53.649151754864754 ], [ -1.859250343043716, 53.649178666081838 ], [ -1.859204868704855, 53.649205577281528 ], [ -1.859159394308082, 53.649232488463767 ], [ -1.859113919853406, 53.649259399628583 ], [ -1.859068445340822, 53.64928631077597 ], [ -1.85902297077033, 53.649313221905935 ], [ -1.858977496141929, 53.649340133018448 ], [ -1.858932021455618, 53.649367044113539 ], [ -1.858886546711402, 53.649393955191215 ], [ -1.858841071909276, 53.649420866251447 ], [ -1.858795597049242, 53.649447777294277 ], [ -1.8587501221313, 53.64947468831965 ], [ -1.85870464715545, 53.6495015993276 ], [ -1.85865917212169, 53.649528510318127 ], [ -1.858613697030022, 53.649555421291218 ], [ -1.858568221880444, 53.649582332246887 ], [ -1.858522746672959, 53.649609243185104 ], [ -1.858477271407565, 53.649636154105906 ], [ -1.858431796084259, 53.649663065009271 ], [ -1.858386320703046, 53.649689975895214 ], [ -1.858340845263926, 53.649716886763727 ], [ -1.858295369766895, 53.649743797614818 ], [ -1.858249894211954, 53.649770708448443 ], [ -1.858204418599101, 53.649797619264689 ], [ -1.858158942928341, 53.649824530063476 ], [ -1.858113467199672, 53.649851440844834 ], [ -1.858067991413092, 53.649878351608756 ], [ -1.858022515568603, 53.649905262355269 ], [ -1.857977039666203, 53.649932173084323 ], [ -1.857931563705891, 53.649959083795949 ], [ -1.85788608768767, 53.649985994490166 ], [ -1.857840611611543, 53.650012905166946 ], [ -1.857795135477503, 53.650039815826297 ], [ -1.85774965928555, 53.650066726468211 ], [ -1.857704183035686, 53.650093637092688 ], [ -1.857658706727914, 53.650120547699757 ], [ -1.857613230362232, 53.650147458289368 ], [ -1.857567753938638, 53.650174368861549 ], [ -1.857522277457133, 53.650201279416315 ], [ -1.857476800917715, 53.650228189953651 ], [ -1.857431324320388, 53.650255100473544 ], [ -1.857385847665148, 53.650282010976007 ], [ -1.857340370952, 53.650308921461047 ], [ -1.857294894180938, 53.650335831928665 ], [ -1.857249417351964, 53.650362742378846 ], [ -1.857203940465079, 53.650389652811576 ], [ -1.857158463520282, 53.650416563226877 ], [ -1.857112986517577, 53.650443473624776 ], [ -1.857067509456956, 53.65047038400521 ], [ -1.857022032338424, 53.650497294368229 ], [ -1.85697655516198, 53.650524204713818 ], [ -1.856931077927623, 53.650551115041957 ], [ -1.856885600635355, 53.650578025352679 ], [ -1.856840123285174, 53.65060493564598 ], [ -1.856794645877081, 53.650631845921829 ], [ -1.856749168411073, 53.650658756180263 ], [ -1.856703690887155, 53.650685666421261 ], [ -1.856658213305326, 53.650712576644814 ], [ -1.856612735665583, 53.650739486850945 ], [ -1.856567257967924, 53.650766397039639 ], [ -1.856521780212354, 53.650793307210911 ], [ -1.856476302398871, 53.650820217364746 ], [ -1.856430824527474, 53.650847127501144 ], [ -1.856385346598166, 53.650874037620099 ], [ -1.856339868610944, 53.650900947721645 ], [ -1.856294390565806, 53.650927857805748 ], [ -1.856248912462756, 53.650954767872427 ], [ -1.856203434301793, 53.650981677921664 ], [ -1.856157956082914, 53.651008587953463 ], [ -1.856112477806122, 53.651035497967833 ], [ -1.856066999471419, 53.651062407964787 ], [ -1.856021521078798, 53.65108931794429 ], [ -1.855976042628265, 53.651116227906364 ], [ -1.855930564119818, 53.651143137851022 ], [ -1.855885085553459, 53.65117004777823 ], [ -1.855839606929182, 53.651196957688015 ], [ -1.85579412824699, 53.651223867580363 ], [ -1.855748649506884, 53.651250777455253 ], [ -1.855703170708864, 53.651277687312749 ], [ -1.855657691852929, 53.651304597152787 ], [ -1.855612212939081, 53.651331506975403 ], [ -1.855566733967314, 53.651358416780567 ], [ -1.855521254937634, 53.651385326568331 ], [ -1.85547577585004, 53.651412236338629 ], [ -1.855430296704533, 53.651439146091505 ], [ -1.855384817501105, 53.651466055826965 ], [ -1.855339338239763, 53.651492965544975 ], [ -1.855293858920507, 53.651519875245555 ], [ -1.855248379543334, 53.651546784928705 ], [ -1.855202900108248, 53.651573694594411 ], [ -1.855157420615244, 53.651600604242688 ], [ -1.855111941064326, 53.651627513873535 ], [ -1.855066461455488, 53.651654423486946 ], [ -1.855020981788737, 53.651681333082927 ], [ -1.854975502064068, 53.651708242661471 ], [ -1.854930022281485, 53.651735152222578 ], [ -1.854884634860985, 53.651735097324966 ], [ -1.854839154991675, 53.651762006851378 ], [ -1.854793675064451, 53.651788916360367 ], [ -1.854748287586484, 53.651788861411013 ], [ -1.854702807572534, 53.651815770885328 ], [ -1.854657327500666, 53.651842680342185 ], [ -1.854611847370881, 53.651869589781597 ], [ -1.854566459806642, 53.651869534763293 ], [ -1.854521072242548, 53.651869479727779 ], [ -1.854475684678609, 53.651869424675048 ], [ -1.854430297114819, 53.65186936960513 ], [ -1.854384909551182, 53.651869314518009 ], [ -1.854339521987689, 53.651869259413658 ], [ -1.854294134424351, 53.651869204292133 ], [ -1.854248746861162, 53.651869149153399 ], [ -1.854203359298124, 53.651869093997448 ], [ -1.854157971735236, 53.65186903882428 ], [ -1.854112491259458, 53.651895948073715 ], [ -1.854067010725762, 53.651922857305685 ], [ -1.854021530134148, 53.651949766520225 ], [ -1.853976049484618, 53.651976675717336 ], [ -1.853930568777168, 53.652003584896995 ], [ -1.853885088011805, 53.65203049405924 ], [ -1.853839607188524, 53.652057403204026 ], [ -1.853794126307322, 53.652084312331404 ], [ -1.853748645368205, 53.652111221441331 ], [ -1.853703164371169, 53.652138130533814 ], [ -1.853657683316218, 53.652165039608896 ], [ -1.853612202203346, 53.652191948666506 ], [ -1.853566721032559, 53.652218857706686 ], [ -1.85352123980385, 53.652245766729443 ], [ -1.853475758517225, 53.652272675734764 ], [ -1.853430277172681, 53.652299584722648 ], [ -1.853384889149024, 53.652299529256162 ], [ -1.853339407717754, 53.652326438209364 ], [ -1.853293926228567, 53.652353347145102 ], [ -1.85324844468146, 53.652380256063424 ], [ -1.853202963076438, 53.652407164964316 ], [ -1.853157481413493, 53.652434073847758 ], [ -1.853111999692631, 53.652460982713755 ], [ -1.853066517913851, 53.652487891562345 ], [ -1.853021036077151, 53.652514800393469 ], [ -1.852975554182532, 53.652541709207192 ], [ -1.852930072229993, 53.652568618003457 ], [ -1.852884590219536, 53.652595526782292 ], [ -1.852839108151159, 53.652622435543691 ], [ -1.852793626024864, 53.652649344287653 ], [ -1.852748143840647, 53.652676253014164 ], [ -1.852702661598512, 53.652703161723274 ], [ -1.852657179298457, 53.652730070414911 ], [ -1.852611696940482, 53.652756979089133 ], [ -1.852566214524587, 53.652783887745905 ], [ -1.852520732050773, 53.652810796385246 ], [ -1.852475249519037, 53.652837705007144 ], [ -1.852429766929381, 53.652864613611634 ], [ -1.852384284281807, 53.652891522198651 ], [ -1.85233880157631, 53.652918430768253 ], [ -1.852293318812895, 53.652945339320418 ], [ -1.852247835991557, 53.652972247855146 ], [ -1.852202353112302, 53.652999156372424 ], [ -1.852156870175125, 53.653026064872272 ], [ -1.852111387180022, 53.65305297335469 ], [ -1.852065904127006, 53.653079881819657 ], [ -1.852020421016061, 53.653106790267209 ], [ -1.851974937847202, 53.653133698697289 ], [ -1.851929548930656, 53.653133642678569 ], [ -1.851884160014268, 53.653133586642646 ], [ -1.851838771098031, 53.653133530589514 ], [ -1.851793382181946, 53.653133474519173 ], [ -1.85174789883993, 53.653160382862794 ], [ -1.851702509895194, 53.653160326757984 ], [ -1.851657215434612, 53.653133306204893 ], [ -1.851611921031953, 53.653106285634621 ], [ -1.851566626687211, 53.653079265047097 ], [ -1.851521332400395, 53.653052244442371 ], [ -1.851476038171497, 53.653025223820435 ], [ -1.85143074400052, 53.652998203181269 ], [ -1.851385449887465, 53.652971182524894 ], [ -1.851340155832332, 53.652944161851302 ], [ -1.851294861835115, 53.652917141160486 ], [ -1.851249567895823, 53.652890120452454 ], [ -1.851204274014448, 53.65286309972722 ], [ -1.851158980190995, 53.652836078984741 ], [ -1.851113686425463, 53.65280905822506 ], [ -1.851068392717847, 53.652782037448169 ], [ -1.851023099068154, 53.652755016654048 ], [ -1.850977805476382, 53.652727995842731 ], [ -1.850932511942528, 53.652700975014191 ], [ -1.850887218466594, 53.652673954168428 ], [ -1.850841925048578, 53.652646933305448 ], [ -1.850796631688485, 53.652619912425251 ], [ -1.850751338386311, 53.652592891527846 ], [ -1.850706045142053, 53.652565870613216 ], [ -1.850660751955716, 53.652538849681363 ], [ -1.850615458827297, 53.652511828732294 ], [ -1.8505701657568, 53.652484807766015 ], [ -1.85052487274422, 53.652457786782527 ], [ -1.85047957978956, 53.65243076578183 ], [ -1.850434286892818, 53.652403744763916 ], [ -1.850388994053995, 53.652376723728786 ], [ -1.850343701273091, 53.65234970267641 ], [ -1.850298408550103, 53.652322681606854 ], [ -1.850253115885035, 53.652295660520068 ], [ -1.850207823277885, 53.652268639416057 ], [ -1.850162530728653, 53.652241618294845 ], [ -1.850117238237341, 53.652214597156416 ], [ -1.850071945803943, 53.65218757600077 ], [ -1.850026653428467, 53.652160554827901 ], [ -1.849981361110908, 53.652133533637816 ], [ -1.849936068851263, 53.652106512430535 ], [ -1.849890776649541, 53.652079491206003 ], [ -1.849845484505731, 53.652052469964289 ], [ -1.849800192419846, 53.652025448705359 ], [ -1.849754900391873, 53.651998427429199 ], [ -1.849709608421815, 53.651971406135836 ], [ -1.84966431650968, 53.651944384825242 ], [ -1.849619024655456, 53.651917363497439 ], [ -1.849573732859154, 53.651890342152427 ], [ -1.849528345282921, 53.651890285224411 ], [ -1.849482957706849, 53.651890228279186 ], [ -1.849437570130928, 53.651890171316772 ], [ -1.849392182555166, 53.651890114337128 ], [ -1.849346794979559, 53.651890057340289 ], [ -1.849301407404104, 53.651890000326254 ], [ -1.849256019828806, 53.651889943295018 ], [ -1.849210632253665, 53.651889886246558 ], [ -1.849165244678681, 53.651889829180924 ], [ -1.849119857103854, 53.651889772098052 ], [ -1.84907446952918, 53.651889714997999 ], [ -1.84902908195466, 53.651889657880744 ], [ -1.848983694380301, 53.651889600746259 ], [ -1.848938306806093, 53.651889543594592 ], [ -1.848892919232044, 53.651889486425716 ], [ -1.848847531658153, 53.651889429239645 ], [ -1.848802144084416, 53.651889372036358 ], [ -1.848756852840971, 53.651862350382615 ], [ -1.848711465296506, 53.65186229314498 ], [ -1.848666077752196, 53.651862235890128 ], [ -1.848620690208043, 53.651862178618082 ], [ -1.848575302664047, 53.65186212132884 ], [ -1.848529915120206, 53.651862064022389 ], [ -1.848484527576522, 53.651862006698728 ], [ -1.848439140032995, 53.651861949357873 ], [ -1.848393752489626, 53.651861891999808 ], [ -1.848348364946413, 53.651861834624533 ], [ -1.848302977403355, 53.651861777232071 ], [ -1.848257589860455, 53.651861719822385 ], [ -1.848212202317712, 53.651861662395504 ], [ -1.848166814775125, 53.651861604951428 ], [ -1.848121427232694, 53.651861547490135 ], [ -1.848076039690425, 53.651861490011633 ], [ -1.848030652148307, 53.651861432515943 ], [ -1.847985264606347, 53.651861375003037 ], [ -1.847939877064548, 53.651861317472935 ], [ -1.847894489522903, 53.651861259925631 ], [ -1.847849101981417, 53.651861202361111 ], [ -1.847803811378194, 53.651834180347208 ], [ -1.847758520832885, 53.651807158316082 ], [ -1.847713230345493, 53.651780136267725 ], [ -1.847667939916018, 53.651753114202165 ], [ -1.84762264954446, 53.651726092119389 ], [ -1.847577359230816, 53.651699070019411 ], [ -1.847532068975093, 53.65167204790221 ], [ -1.847486778777281, 53.651645025767806 ], [ -1.847441488637387, 53.651618003616186 ], [ -1.847396198555409, 53.651590981447328 ], [ -1.847350908531348, 53.651563959261281 ], [ -1.847305618565201, 53.651536937058026 ], [ -1.847260328656971, 53.651509914837554 ], [ -1.847215038806653, 53.651482892599851 ], [ -1.847169749014253, 53.651455870344954 ], [ -1.847124459279769, 53.65142884807284 ], [ -1.847079169603199, 53.651401825783509 ], [ -1.847033879984545, 53.651374803476969 ], [ -1.846988590423805, 53.651347781153213 ], [ -1.846943300920981, 53.65132075881224 ], [ -1.846898011476071, 53.651293736454079 ], [ -1.846852722089077, 53.651266714078687 ], [ -1.846807432759995, 53.651239691686072 ], [ -1.846762143488831, 53.651212669276262 ], [ -1.846716854275579, 53.651185646849243 ], [ -1.846671565120242, 53.651158624404985 ], [ -1.846626276022818, 53.651131601943533 ], [ -1.846580986983312, 53.651104579464864 ], [ -1.846535698001717, 53.651077556968993 ], [ -1.846490409078037, 53.651050534455891 ], [ -1.846445120212271, 53.651023511925594 ], [ -1.846399831404419, 53.650996489378088 ], [ -1.846354542654478, 53.650969466813358 ], [ -1.846309253962454, 53.650942444231426 ], [ -1.846263965328342, 53.650915421632277 ], [ -1.846218676752144, 53.650888399015912 ], [ -1.846173388233858, 53.650861376382338 ], [ -1.846128099773487, 53.65083435373154 ], [ -1.846082811371028, 53.650807331063547 ], [ -1.846037523026483, 53.650780308378337 ], [ -1.84599223473985, 53.650753285675933 ], [ -1.845946946511132, 53.650726262956304 ], [ -1.845901658340324, 53.650699240219446 ], [ -1.845856370227431, 53.650672217465399 ], [ -1.845811082172447, 53.650645194694128 ], [ -1.845765794175378, 53.650618171905663 ], [ -1.845720506236221, 53.650591149099967 ], [ -1.845675218354976, 53.650564126277061 ], [ -1.845629930531644, 53.650537103436953 ], [ -1.845584642766224, 53.650510080579643 ], [ -1.845539355058716, 53.650483057705095 ], [ -1.845494067409119, 53.650456034813352 ], [ -1.845448779817434, 53.650429011904421 ], [ -1.845403492283663, 53.650401988978238 ], [ -1.8453582048078, 53.650374966034882 ], [ -1.84531291738985, 53.650347943074273 ], [ -1.845267630029812, 53.650320920096483 ], [ -1.845222342727685, 53.65029389710147 ], [ -1.84517705548347, 53.650266874089255 ], [ -1.845131768297166, 53.650239851059816 ], [ -1.84508648116877, 53.650212828013181 ], [ -1.845041194098289, 53.650185804949338 ], [ -1.844995907085717, 53.650158781868271 ], [ -1.844950620131056, 53.650131758770009 ], [ -1.844905333234306, 53.650104735654509 ], [ -1.844860046395466, 53.650077712521821 ], [ -1.844814759614538, 53.650050689371923 ], [ -1.84476947289152, 53.650023666204795 ], [ -1.84472418622641, 53.649996643020472 ], [ -1.844678899619212, 53.649969619818961 ], [ -1.844633613069925, 53.649942596600198 ], [ -1.844588326578546, 53.649915573364247 ], [ -1.844543040145077, 53.649888550111086 ], [ -1.844497753769518, 53.649861526840724 ], [ -1.844452467451872, 53.649834503553144 ], [ -1.844407181192131, 53.649807480248349 ], [ -1.844361894990303, 53.649780456926329 ], [ -1.844316608846381, 53.649753433587115 ], [ -1.844271322760371, 53.64972641023072 ], [ -1.844226036732268, 53.649699386857073 ], [ -1.844180750762078, 53.649672363466244 ], [ -1.844135464849795, 53.649645340058171 ], [ -1.84409017899542, 53.649618316632925 ], [ -1.844044893198955, 53.649591293190461 ], [ -1.843999607460399, 53.649564269730774 ], [ -1.843954321779751, 53.6495372462539 ], [ -1.843909036157012, 53.649510222759787 ], [ -1.84386375059218, 53.649483199248479 ], [ -1.843818465085258, 53.649456175719969 ], [ -1.843773179636244, 53.649429152174243 ], [ -1.843727894245139, 53.6494021286113 ], [ -1.84368260891194, 53.649375105031169 ], [ -1.843637323636651, 53.649348081433807 ], [ -1.84359203841927, 53.649321057819257 ], [ -1.843546753259798, 53.649294034187491 ], [ -1.84350146815823, 53.649267010538509 ], [ -1.843456183114571, 53.649239986872331 ], [ -1.84341089812882, 53.649212963188937 ], [ -1.843365613200977, 53.649185939488326 ], [ -1.84332032833104, 53.649158915770514 ], [ -1.843275043519012, 53.649131892035484 ], [ -1.84322975876489, 53.649104868283267 ], [ -1.843184474068675, 53.649077844513812 ], [ -1.843139189430368, 53.649050820727176 ], [ -1.843093904849966, 53.649023796923323 ], [ -1.843048620327472, 53.648996773102262 ], [ -1.843003335862886, 53.648969749263991 ], [ -1.842958051456205, 53.64894272540851 ], [ -1.842912767107431, 53.648915701535813 ], [ -1.842867482816564, 53.648888677645914 ], [ -1.842822198583603, 53.64886165373882 ], [ -1.842776914408548, 53.648834629814509 ], [ -1.842731630291399, 53.648807605872996 ], [ -1.842686346232155, 53.648780581914245 ], [ -1.842641062230818, 53.648753557938321 ], [ -1.842595778287386, 53.648726533945187 ], [ -1.842550494401862, 53.648699509934822 ], [ -1.842505210574243, 53.648672485907269 ], [ -1.842459926804528, 53.648645461862507 ], [ -1.84241464309272, 53.648618437800529 ], [ -1.842369359438818, 53.648591413721348 ], [ -1.842324075842816, 53.648564389624958 ], [ -1.842278792304726, 53.648537365511359 ], [ -1.842233508824536, 53.648510341380572 ], [ -1.842188225402255, 53.648483317232554 ], [ -1.842142942037875, 53.648456293067333 ], [ -1.842097658731405, 53.648429268884918 ], [ -1.842052375482834, 53.648402244685272 ], [ -1.842007092292172, 53.648375220468438 ], [ -1.841961809159413, 53.648348196234387 ], [ -1.841916526084558, 53.648321171983142 ], [ -1.841871243067608, 53.648294147714672 ], [ -1.841825960108564, 53.648267123429001 ], [ -1.841780677207419, 53.648240099126127 ], [ -1.841735394364182, 53.648213074806051 ], [ -1.841690111578848, 53.648186050468766 ], [ -1.841644828851418, 53.648159026114271 ], [ -1.84159954618189, 53.648132001742567 ], [ -1.84155426357027, 53.648104977353654 ], [ -1.841508880076008, 53.64810491738875 ], [ -1.841463597551402, 53.648077892965489 ], [ -1.841418315084702, 53.648050868525026 ], [ -1.841373032675907, 53.648023844067353 ], [ -1.841327750325011, 53.647996819592485 ], [ -1.841282468032021, 53.647969795100394 ], [ -1.841237185796935, 53.647942770591115 ], [ -1.841191903619752, 53.647915746064619 ], [ -1.84114662150047, 53.647888721520914 ], [ -1.841101339439091, 53.647861696960007 ], [ -1.841056057435615, 53.64783467238189 ], [ -1.841010775490043, 53.647807647786571 ], [ -1.84096549360237, 53.647780623174036 ], [ -1.840920211772606, 53.647753598544305 ], [ -1.840874930000738, 53.647726573897373 ], [ -1.840829648286774, 53.647699549233231 ], [ -1.840784366630714, 53.647672524551872 ], [ -1.840739085032555, 53.647645499853326 ], [ -1.840693803492299, 53.647618475137556 ], [ -1.840648522009941, 53.64759145040459 ], [ -1.840603240585489, 53.647564425654423 ], [ -1.840557959218938, 53.64753740088706 ], [ -1.840512576336267, 53.647537340544943 ], [ -1.840467295056731, 53.647510315743219 ], [ -1.840422013835098, 53.647483290924278 ], [ -1.840376732671367, 53.647456266088135 ], [ -1.840331451565535, 53.647429241234811 ], [ -1.840286170517604, 53.64740221636427 ], [ -1.84024088952758, 53.647375191476506 ], [ -1.840195608595451, 53.647348166571561 ], [ -1.840150327721223, 53.6473211416494 ], [ -1.840105046904899, 53.647294116710015 ], [ -1.840059766146475, 53.647267091753442 ], [ -1.840014485445951, 53.64724006677968 ], [ -1.839969204803326, 53.647213041788682 ], [ -1.839923924218603, 53.647186016780516 ], [ -1.83987864369178, 53.64715899175512 ], [ -1.839833363222859, 53.647131966712514 ], [ -1.839788082811837, 53.647104941652721 ], [ -1.839742802458715, 53.647077916575704 ], [ -1.839697522163493, 53.647050891481499 ], [ -1.83965224192617, 53.647023866370091 ], [ -1.839606961746748, 53.646996841241474 ], [ -1.839561681625224, 53.646969816095627 ], [ -1.839516401561602, 53.64694279093262 ], [ -1.839471121555878, 53.646915765752382 ], [ -1.839425841608054, 53.646888740554942 ], [ -1.83938045942432, 53.64688867978424 ], [ -1.839335077240757, 53.646888618996329 ], [ -1.839289797409061, 53.646861593747403 ], [ -1.839244517635268, 53.646834568481282 ], [ -1.839199135510097, 53.646834507641898 ], [ -1.839153753385094, 53.646834446785284 ], [ -1.839108371260259, 53.646834385911497 ], [ -1.839063091631713, 53.646807360576737 ], [ -1.839017709536154, 53.646807299668602 ], [ -1.83897242999462, 53.646780274299509 ], [ -1.838927150510986, 53.6467532489132 ], [ -1.838881768473828, 53.646753187953571 ], [ -1.838836489077209, 53.646726162532936 ], [ -1.838791107069337, 53.64672610153896 ], [ -1.83874582775973, 53.646699076083976 ], [ -1.838700548508025, 53.646672050611784 ], [ -1.838655269314218, 53.646645025122375 ], [ -1.838609887393857, 53.646644964059789 ], [ -1.838564505473664, 53.646644902979993 ], [ -1.838519226395989, 53.646617877439112 ], [ -1.838473947376208, 53.646590851881015 ], [ -1.838428668414327, 53.64656382630573 ], [ -1.838383389510345, 53.646536800713228 ], [ -1.838338110664262, 53.646509775103532 ], [ -1.838292831876075, 53.64648274947664 ], [ -1.838247553145786, 53.646455723832531 ], [ -1.838202274473397, 53.646428698171221 ], [ -1.838156892786298, 53.64642863693711 ], [ -1.838111511099368, 53.646428575685803 ], [ -1.838066232543106, 53.646401549973007 ], [ -1.838020850885459, 53.646401488687353 ], [ -1.83797546922798, 53.64640142738449 ], [ -1.837930087570667, 53.646401366064438 ], [ -1.837884705913523, 53.646401304727192 ], [ -1.837839427531622, 53.646374278928626 ], [ -1.837794149207624, 53.646347253112857 ], [ -1.83774887094152, 53.646320227279901 ], [ -1.837703489371891, 53.646320165874016 ], [ -1.837658211192802, 53.646293140006705 ], [ -1.837612829652455, 53.646293078566487 ], [ -1.837567448112278, 53.646293017109066 ], [ -1.837522170049321, 53.646265991190283 ], [ -1.837476788538429, 53.646265929698522 ], [ -1.837431407027704, 53.646265868189552 ], [ -1.837386025517149, 53.646265806663386 ], [ -1.837340644006759, 53.64626574512004 ], [ -1.837295366118163, 53.64623871911548 ], [ -1.837249984637055, 53.646238657537772 ], [ -1.837204603156122, 53.646238595942869 ], [ -1.837159325383655, 53.646211569886837 ], [ -1.837114047669087, 53.646184543813597 ], [ -1.837068770012412, 53.646157517723161 ], [ -1.837023388618998, 53.646157456059647 ], [ -1.836978007225752, 53.646157394378918 ], [ -1.836932729685207, 53.646130368236996 ], [ -1.836887348321244, 53.646130306521933 ], [ -1.836842070867715, 53.64610328034567 ], [ -1.836796689533038, 53.646103218596267 ], [ -1.836751308198532, 53.646103156829646 ], [ -1.836705926864188, 53.646103095045845 ], [ -1.836660545530016, 53.646103033244827 ], [ -1.836615164196011, 53.646102971426643 ], [ -1.836569782862179, 53.646102909591228 ], [ -1.836524401528512, 53.646102847738618 ], [ -1.836479020195016, 53.646102785868806 ], [ -1.83643374303232, 53.64607575953822 ], [ -1.836388361728113, 53.64607569763406 ], [ -1.83634298042407, 53.646075635712712 ], [ -1.836297599120197, 53.646075573774169 ], [ -1.836252217816494, 53.646075511818417 ], [ -1.836206940828162, 53.646048485402062 ], [ -1.836161559553748, 53.646048423411983 ], [ -1.836116282652432, 53.646021396961288 ], [ -1.836070901407302, 53.646021334936869 ], [ -1.836025624592998, 53.645994308451826 ], [ -1.835980243377157, 53.645994246393066 ], [ -1.835934966649867, 53.645967219873704 ], [ -1.835889585463313, 53.645967157780582 ], [ -1.835844308823038, 53.64594013122688 ], [ -1.835798927665772, 53.645940069099439 ], [ -1.83575354650867, 53.645940006954774 ], [ -1.835708269984526, 53.645912980349614 ], [ -1.835662888856718, 53.645912918170616 ], [ -1.835617612419586, 53.64588589153108 ], [ -1.835572336040351, 53.645858864874342 ], [ -1.835526954970945, 53.645858802643865 ], [ -1.83548157390171, 53.645858740396214 ], [ -1.835436297638607, 53.645831713687983 ], [ -1.835391021433399, 53.645804686962592 ], [ -1.835345745286088, 53.645777660219977 ], [ -1.83530046919667, 53.645750633460175 ], [ -1.835255193165151, 53.645723606683177 ], [ -1.835209917191521, 53.645696579888956 ], [ -1.835164641275791, 53.645669553077539 ], [ -1.835119365417957, 53.645642526248928 ], [ -1.835074089618015, 53.645615499403128 ], [ -1.835028813875971, 53.645588472540112 ], [ -1.834983538191817, 53.645561445659908 ], [ -1.834938262565561, 53.645534418762502 ], [ -1.834892986997198, 53.645507391847886 ], [ -1.834847711486731, 53.645480364916068 ], [ -1.834802436034157, 53.645453337967055 ], [ -1.834757160639478, 53.645426311000847 ], [ -1.834711885302694, 53.645399284017429 ], [ -1.834666610023802, 53.645372257016845 ], [ -1.834621334802805, 53.645345229999009 ], [ -1.834576059639703, 53.645318202964006 ], [ -1.834530784534491, 53.645291175911794 ], [ -1.834485509487177, 53.645264148842379 ], [ -1.834440234497756, 53.64523712175577 ], [ -1.834394959566228, 53.645210094651965 ], [ -1.83434968469259, 53.645183067530958 ], [ -1.83430440987685, 53.645156040392756 ], [ -1.834259135119002, 53.645129013237337 ], [ -1.834213860419047, 53.645101986064745 ], [ -1.834168585776984, 53.645074958874922 ], [ -1.834123311192815, 53.645047931667925 ], [ -1.834078036666539, 53.645020904443726 ], [ -1.834032762198155, 53.644993877202332 ], [ -1.833987487787664, 53.644966849943721 ], [ -1.833942213435065, 53.644939822667929 ], [ -1.833896939140361, 53.644912795374914 ], [ -1.833851664903545, 53.644885768064718 ], [ -1.833806390724624, 53.644858740737313 ], [ -1.833761116603595, 53.644831713392733 ], [ -1.833715842540459, 53.644804686030945 ], [ -1.833670568535212, 53.644777658651925 ], [ -1.833625294587859, 53.644750631255739 ], [ -1.833580020698398, 53.644723603842337 ], [ -1.833534746866828, 53.644696576411761 ], [ -1.83348947309315, 53.644669548963982 ], [ -1.833444199377363, 53.644642521498987 ], [ -1.833398925719468, 53.644615494016797 ], [ -1.833353652119464, 53.644588466517426 ], [ -1.83330837857735, 53.644561439000839 ], [ -1.833263105093131, 53.644534411467056 ], [ -1.833217831666799, 53.644507383916086 ], [ -1.83317255829836, 53.644480356347906 ], [ -1.83312728498781, 53.644453328762538 ], [ -1.833082011735154, 53.644426301159967 ], [ -1.833036738540387, 53.644399273540181 ], [ -1.83299146540351, 53.644372245903227 ], [ -1.832946192324522, 53.64434521824905 ], [ -1.832900919303428, 53.644318190577692 ], [ -1.832855646340221, 53.644291162889132 ], [ -1.832810373434907, 53.64426413518337 ], [ -1.832765100587484, 53.644237107460405 ], [ -1.832719827797946, 53.64421007972026 ], [ -1.832674555066301, 53.644183051962905 ], [ -1.832629282392547, 53.644156024188362 ], [ -1.832584009776683, 53.644128996396617 ], [ -1.832538630571157, 53.644128933034899 ], [ -1.832493358042299, 53.644101905208814 ], [ -1.832448085571329, 53.64407487736554 ], [ -1.832402813158248, 53.644047849505071 ], [ -1.832357434040251, 53.644047786074736 ], [ -1.83231216171418, 53.64402075817992 ], [ -1.832266782625473, 53.644020694715266 ], [ -1.832221510386407, 53.643993666786123 ], [ -1.832176238205233, 53.643966638839778 ], [ -1.832130966081945, 53.643939610876238 ], [ -1.832085694016548, 53.643912582895503 ], [ -1.832040422009036, 53.643885554897565 ], [ -1.831995043066094, 53.643885491330025 ], [ -1.831949771145592, 53.643858463297768 ], [ -1.831904392231939, 53.64385839969588 ], [ -1.831859013318458, 53.643858336076804 ], [ -1.831813634405155, 53.643858272440539 ], [ -1.831768255492023, 53.643858208787051 ], [ -1.831722876579067, 53.643858145116383 ], [ -1.831677604862043, 53.643831116981218 ], [ -1.831632225978378, 53.643831053276223 ], [ -1.831586954348361, 53.643804025106746 ], [ -1.831541682776233, 53.64377699692006 ], [ -1.831496303950977, 53.643776933163593 ], [ -1.831450925125896, 53.643776869389917 ], [ -1.831405653669893, 53.643749841151774 ], [ -1.831360382271781, 53.643722812896421 ], [ -1.83131500350511, 53.643722749071266 ], [ -1.831269732194002, 53.643695720781601 ], [ -1.831224460940782, 53.643668692474726 ], [ -1.831179082232522, 53.6436686285981 ], [ -1.831133703524439, 53.643668564704278 ], [ -1.831088432387343, 53.643641536345932 ], [ -1.831043161308137, 53.643614507970405 ], [ -1.830997782658464, 53.643614444025111 ], [ -1.830952511666263, 53.643587415615244 ], [ -1.830907240731949, 53.643560387188188 ], [ -1.830861969855524, 53.643533358743923 ], [ -1.830816699036985, 53.64350633028247 ], [ -1.830771428276336, 53.643479301803815 ], [ -1.830726157573571, 53.643452273307979 ], [ -1.830680886928694, 53.64342524479494 ], [ -1.830635616341709, 53.6433982162647 ], [ -1.830590345812606, 53.643371187717257 ], [ -1.830545075341391, 53.643344159152626 ], [ -1.830499804928063, 53.643317130570807 ], [ -1.83045453457262, 53.643290101971793 ], [ -1.830409264275068, 53.643263073355563 ], [ -1.830363994035398, 53.643236044722151 ], [ -1.830318723853618, 53.643209016071552 ], [ -1.830273453729721, 53.643181987403764 ], [ -1.830228183663714, 53.643154958718767 ], [ -1.830182913655591, 53.643127930016568 ], [ -1.830137643705354, 53.643100901297188 ], [ -1.830092373813003, 53.643073872560606 ], [ -1.83004710397854, 53.643046843806829 ], [ -1.830001834201962, 53.643019815035871 ], [ -1.82995656448327, 53.64299278624771 ], [ -1.82991129482246, 53.64296575744234 ], [ -1.829866025219542, 53.642938728619782 ], [ -1.829820755674505, 53.642911699780015 ], [ -1.829775377782087, 53.642911635372002 ], [ -1.829730108324056, 53.64288460649793 ], [ -1.829684838923907, 53.642857577606662 ], [ -1.829639569581646, 53.642830548698178 ], [ -1.82959430029727, 53.642803519772521 ], [ -1.829549031070776, 53.642776490829675 ], [ -1.829503761902172, 53.642749461869627 ], [ -1.829458492791447, 53.642722432892384 ], [ -1.829413223738614, 53.642695403897946 ], [ -1.829367954743659, 53.642668374886298 ], [ -1.829322685806589, 53.64264134585747 ], [ -1.829277416927406, 53.642614316811454 ], [ -1.829232148106106, 53.642587287748228 ], [ -1.829186879342691, 53.642560258667828 ], [ -1.82914161063716, 53.642533229570212 ], [ -1.829096341989512, 53.642506200455429 ], [ -1.829051073399749, 53.642479171323437 ], [ -1.829005804867868, 53.642452142174243 ], [ -1.828960536393874, 53.64242511300786 ], [ -1.828915267977761, 53.642398083824297 ], [ -1.828869999619532, 53.642371054623524 ], [ -1.828824731319189, 53.642344025405556 ], [ -1.828779463076726, 53.642316996170422 ], [ -1.828734194892147, 53.642289966918078 ], [ -1.828688926765452, 53.642262937648525 ], [ -1.828643658696641, 53.642235908361798 ], [ -1.828598390685712, 53.642208879057868 ], [ -1.828553122732664, 53.642181849736751 ], [ -1.828507854837501, 53.642154820398432 ], [ -1.82846258700022, 53.64212779104291 ], [ -1.828417319220821, 53.642100761670221 ], [ -1.828372051499307, 53.642073732280345 ], [ -1.828326783835673, 53.642046702873245 ], [ -1.828281516229924, 53.642019673448964 ], [ -1.828236248682054, 53.641992644007487 ], [ -1.828190981192066, 53.641965614548837 ], [ -1.828145713759963, 53.641938585072971 ], [ -1.82810044638574, 53.641911555579917 ], [ -1.828055179069397, 53.641884526069681 ], [ -1.828009911810941, 53.641857496542244 ], [ -1.827964644610364, 53.641830466997611 ], [ -1.827919377467665, 53.641803437435783 ], [ -1.827874110382852, 53.641776407856774 ], [ -1.82782884335592, 53.641749378260563 ], [ -1.82778357638687, 53.641722348647171 ], [ -1.827738309475698, 53.641695319016577 ], [ -1.82769304262241, 53.641668289368795 ], [ -1.827647775827, 53.64164125970381 ], [ -1.827602509089474, 53.641614230021652 ], [ -1.827557242409826, 53.641587200322292 ], [ -1.827511975788059, 53.64156017060575 ], [ -1.827466709224175, 53.641533140871992 ], [ -1.827421442718171, 53.641506111121068 ], [ -1.827376176270045, 53.641479081352927 ], [ -1.827330909879803, 53.641452051567619 ], [ -1.827285643547438, 53.641425021765095 ], [ -1.827240377272956, 53.641397991945404 ], [ -1.827195111056353, 53.641370962108503 ], [ -1.827149734823867, 53.641370896706611 ], [ -1.827104358591561, 53.641370831287539 ], [ -1.827058982359437, 53.641370765851285 ], [ -1.827013606127488, 53.641370700397815 ], [ -1.826968229895718, 53.641370634927142 ], [ -1.826922853664128, 53.641370569439275 ], [ -1.826877477432715, 53.641370503934212 ], [ -1.826832101201482, 53.641370438411961 ], [ -1.826786724970429, 53.641370372872494 ], [ -1.826741459073774, 53.641343342864211 ], [ -1.826696193234998, 53.641316312838732 ], [ -1.826650927454102, 53.641289282796059 ], [ -1.826605661731088, 53.64126225273619 ], [ -1.826560396065951, 53.641235222659155 ], [ -1.826515130458694, 53.641208192564918 ], [ -1.826469864909318, 53.641181162453464 ], [ -1.826424599417818, 53.64115413232485 ], [ -1.826379333984198, 53.641127102179041 ], [ -1.826334068608459, 53.64110007201603 ], [ -1.826288803290602, 53.641073041835824 ], [ -1.826243538030615, 53.641046011638458 ], [ -1.826198272828512, 53.641018981423869 ], [ -1.826153007684288, 53.640991951192078 ], [ -1.826107742597942, 53.640964920943127 ], [ -1.826062477569475, 53.640937890676973 ], [ -1.826017212598885, 53.640910860393632 ], [ -1.825971947686176, 53.640883830093102 ], [ -1.825926682831342, 53.640856799775371 ], [ -1.82588141803439, 53.640829769440458 ], [ -1.825836153295314, 53.640802739088365 ], [ -1.825790888614117, 53.640775708719062 ], [ -1.825745623990797, 53.640748678332571 ], [ -1.825700359425352, 53.640721647928899 ], [ -1.825655094917788, 53.640694617508046 ], [ -1.825609830468101, 53.640667587069984 ], [ -1.825564566076292, 53.64064055661472 ], [ -1.82551930174236, 53.64061352614231 ], [ -1.825474037466305, 53.640586495652677 ], [ -1.825428773248126, 53.640559465145863 ], [ -1.825383509087827, 53.640532434621861 ], [ -1.825338244985403, 53.640505404080663 ], [ -1.825292980940855, 53.640478373522285 ], [ -1.825247716954187, 53.640451342946697 ], [ -1.825202453025392, 53.640424312353929 ], [ -1.825157189154476, 53.640397281743979 ], [ -1.825111925341435, 53.640370251116835 ], [ -1.825066661586272, 53.640343220472502 ], [ -1.825021397888986, 53.640316189810996 ], [ -1.824976134249573, 53.640289159132259 ], [ -1.824930870668041, 53.640262128436376 ], [ -1.824885607144383, 53.640235097723263 ], [ -1.8248402321365, 53.640235031447041 ], [ -1.824794857128802, 53.640234965153653 ], [ -1.824749482121284, 53.64023489884304 ], [ -1.824704107113946, 53.640234832515219 ], [ -1.82465873210679, 53.640234766170202 ], [ -1.824613357099814, 53.640234699808012 ], [ -1.824568093808746, 53.640207668974945 ], [ -1.824522718831071, 53.6402076025784 ], [ -1.824477343853577, 53.640207536164695 ], [ -1.824431968876264, 53.640207469733753 ], [ -1.824386593899134, 53.640207403285636 ], [ -1.824341218922185, 53.640207336820325 ], [ -1.824295843945414, 53.640207270337818 ], [ -1.824250468968831, 53.640207203838095 ], [ -1.824205093992423, 53.640207137321184 ], [ -1.824159719016202, 53.640207070787092 ], [ -1.824114344040161, 53.640207004235791 ], [ -1.824068969064299, 53.640206937667273 ], [ -1.824023594088621, 53.640206871081595 ], [ -1.823978219113125, 53.640206804478694 ], [ -1.82393284413781, 53.64020673785862 ], [ -1.823887469162676, 53.640206671221328 ], [ -1.823842094187725, 53.640206604566856 ], [ -1.823796719212956, 53.640206537895175 ], [ -1.823751344238369, 53.640206471206277 ], [ -1.823705969263966, 53.640206404500226 ], [ -1.823660594289744, 53.640206337776931 ], [ -1.823615219315702, 53.64020627103649 ], [ -1.823569844341844, 53.640206204278833 ], [ -1.823524581749282, 53.640179173051656 ], [ -1.823479319214601, 53.640152141807334 ], [ -1.823433944299166, 53.640152074998205 ], [ -1.823388569383911, 53.640152008171889 ], [ -1.823343194468841, 53.640151941328384 ], [ -1.82329781955395, 53.640151874467676 ], [ -1.823252444639246, 53.640151807589753 ], [ -1.823207069724722, 53.640151740694677 ], [ -1.823161694810381, 53.640151673782363 ], [ -1.823116319896223, 53.640151606852854 ], [ -1.823070944982248, 53.640151539906164 ], [ -1.823025570068456, 53.640151472942271 ], [ -1.822980195154845, 53.640151405961191 ], [ -1.82293482024142, 53.640151338962909 ], [ -1.822889445328174, 53.640151271947431 ], [ -1.822844070415118, 53.640151204914751 ], [ -1.822798695502238, 53.640151137864855 ], [ -1.822753320589545, 53.640151070797806 ], [ -1.822707945677031, 53.640151003713541 ], [ -1.8226625707647, 53.640150936612059 ], [ -1.822617195852559, 53.640150869493397 ], [ -1.822571820940594, 53.640150802357546 ], [ -1.822526446028818, 53.640150735204493 ], [ -1.82248107111722, 53.640150668034252 ], [ -1.822435696205809, 53.640150600846795 ], [ -1.822390321294578, 53.640150533642149 ], [ -1.822344946383535, 53.640150466420309 ], [ -1.822299571472673, 53.640150399181273 ], [ -1.822254196561996, 53.640150331925042 ], [ -1.822208821651501, 53.640150264651609 ], [ -1.822163446741188, 53.640150197360988 ], [ -1.822118071831063, 53.640150130053144 ], [ -1.82207269692112, 53.640150062728132 ], [ -1.82202732201136, 53.640149995385912 ], [ -1.821981947101782, 53.640149928026496 ], [ -1.821936572192392, 53.640149860649892 ], [ -1.821891197283185, 53.640149793256093 ], [ -1.821845822374161, 53.640149725845077 ], [ -1.82180044746532, 53.640149658416881 ], [ -1.821755072556664, 53.640149590971482 ], [ -1.821709697648195, 53.640149523508875 ], [ -1.821664322739903, 53.640149456029086 ], [ -1.821618947831803, 53.640149388532109 ], [ -1.821573572923881, 53.640149321017923 ], [ -1.821528198016149, 53.640149253486548 ], [ -1.821482823108598, 53.640149185937972 ], [ -1.821437448201232, 53.640149118372179 ], [ -1.821392073294052, 53.640149050789219 ], [ -1.821346698387055, 53.640148983189043 ], [ -1.821301323480242, 53.640148915571679 ], [ -1.821255948573612, 53.64014884793712 ], [ -1.821210573667173, 53.640148780285365 ], [ -1.821165198760913, 53.640148712616401 ], [ -1.82111982385484, 53.640148644930264 ], [ -1.821074448948951, 53.64014857722691 ], [ -1.821029074043249, 53.640148509506375 ], [ -1.820983699137727, 53.640148441768616 ], [ -1.820938324232392, 53.640148374013684 ], [ -1.820892949327244, 53.640148306241549 ], [ -1.820847574422279, 53.640148238452213 ], [ -1.820802199517501, 53.640148170645695 ], [ -1.820756824612906, 53.640148102821982 ], [ -1.8207114497085, 53.640148034981038 ], [ -1.820666074804274, 53.640147967122921 ], [ -1.820620699900238, 53.640147899247616 ], [ -1.820575324996383, 53.640147831355108 ], [ -1.820529950092716, 53.640147763445391 ], [ -1.820484575189234, 53.6401476955185 ], [ -1.820439200285934, 53.640147627574393 ], [ -1.820393825382827, 53.640147559613098 ], [ -1.820348450479897, 53.640147491634593 ], [ -1.820303075577159, 53.640147423638922 ], [ -1.820257700674604, 53.640147355626027 ], [ -1.820212325772238, 53.640147287595923 ], [ -1.820166950870053, 53.640147219548659 ], [ -1.820121575968055, 53.640147151484186 ], [ -1.820076201066243, 53.640147083402503 ], [ -1.820030826164617, 53.640147015303633 ], [ -1.819985451263178, 53.64014694718756 ], [ -1.819940076361921, 53.640146879054292 ], [ -1.819894701460856, 53.640146810903829 ], [ -1.819849326559975, 53.640146742736185 ], [ -1.819803951659281, 53.640146674551339 ], [ -1.81975857675877, 53.640146606349283 ], [ -1.819713201858447, 53.640146538130033 ], [ -1.81966782695831, 53.64014646989358 ], [ -1.819622452058357, 53.640146401639946 ], [ -1.819577077158594, 53.640146333369103 ], [ -1.819531702259015, 53.640146265081064 ], [ -1.819486327359624, 53.640146196775838 ], [ -1.819440952460418, 53.640146128453409 ], [ -1.819395577561402, 53.640146060113786 ], [ -1.819350202662567, 53.640145991756974 ], [ -1.819304827763925, 53.640145923382946 ], [ -1.819259452865465, 53.640145854991729 ], [ -1.819214077967193, 53.640145786583311 ], [ -1.819168703069107, 53.640145718157726 ], [ -1.81912332817121, 53.640145649714903 ], [ -1.819077953273498, 53.640145581254906 ], [ -1.81903257837597, 53.640145512777721 ], [ -1.818987203478636, 53.640145444283313 ], [ -1.818941828581484, 53.640145375771731 ], [ -1.818896453684522, 53.640145307242925 ], [ -1.818851078787745, 53.640145238696959 ], [ -1.818805703891155, 53.640145170133763 ], [ -1.818760328994754, 53.640145101553394 ], [ -1.818714954098535, 53.640145032955814 ], [ -1.81866957920251, 53.640144964341054 ], [ -1.818624204306669, 53.640144895709078 ], [ -1.818578829411018, 53.640144827059935 ], [ -1.818533454515548, 53.640144758393554 ], [ -1.818488079620272, 53.640144689710006 ], [ -1.818442704725182, 53.640144621009249 ], [ -1.818397329830281, 53.640144552291297 ], [ -1.818351954935562, 53.640144483556149 ], [ -1.818306580041034, 53.6401444148038 ], [ -1.818261205146696, 53.640144346034255 ], [ -1.818215830252542, 53.640144277247515 ], [ -1.818170455358577, 53.640144208443587 ], [ -1.8181250804648, 53.640144139622457 ], [ -1.818079705571213, 53.640144070784132 ], [ -1.81803433067781, 53.640144001928611 ], [ -1.817988955784599, 53.640143933055903 ], [ -1.817943580891574, 53.640143864165964 ], [ -1.817898205998736, 53.640143795258858 ], [ -1.817852947104061, 53.640116761890312 ], [ -1.817807688267264, 53.640089728504591 ], [ -1.817762313432868, 53.640089659546028 ], [ -1.817717054683068, 53.640062626125989 ], [ -1.817671795991149, 53.64003559268879 ], [ -1.817626537357104, 53.640008559234374 ], [ -1.817581278780932, 53.639981525762778 ], [ -1.817536020262635, 53.639954492274015 ], [ -1.817490761802212, 53.639927458768064 ], [ -1.817445387142758, 53.639927389689525 ], [ -1.817400012483497, 53.639927320593792 ], [ -1.817354637824423, 53.639927251480849 ], [ -1.817309263165533, 53.639927182350718 ], [ -1.817263888506836, 53.639927113203406 ], [ -1.817218513848326, 53.639927044038885 ], [ -1.817173139190005, 53.639926974857154 ], [ -1.817127764531873, 53.63992690565825 ], [ -1.817082389873932, 53.639926836442143 ], [ -1.817037015216177, 53.63992676720882 ], [ -1.816991640558613, 53.63992669795833 ], [ -1.816946265901236, 53.639926628690631 ], [ -1.816900891244051, 53.639926559405716 ], [ -1.816855516587053, 53.639926490103633 ], [ -1.816810141930246, 53.639926420784334 ], [ -1.816764767273626, 53.639926351447855 ], [ -1.816719392617198, 53.639926282094166 ], [ -1.816674017960955, 53.639926212723296 ], [ -1.816628643304904, 53.639926143335209 ], [ -1.816583268649045, 53.639926073929949 ], [ -1.816537893993371, 53.639926004507458 ], [ -1.816492519337887, 53.639925935067808 ], [ -1.816447144682595, 53.639925865610934 ], [ -1.816401770027494, 53.639925796136879 ], [ -1.816356395372578, 53.639925726645615 ], [ -1.816311020717855, 53.639925657137184 ], [ -1.81626564606332, 53.639925587611522 ], [ -1.816220271408978, 53.639925518068679 ], [ -1.816174896754822, 53.639925448508649 ], [ -1.816129522100856, 53.639925378931402 ], [ -1.816084147447082, 53.639925309336959 ], [ -1.816038772793497, 53.639925239725329 ], [ -1.815993398140104, 53.639925170096511 ], [ -1.815948023486896, 53.639925100450469 ], [ -1.815902648833886, 53.639925030787268 ], [ -1.815857274181059, 53.63992496110685 ], [ -1.815812016827077, 53.639897926967087 ], [ -1.815766642203569, 53.639897857252336 ], [ -1.815721267580254, 53.639897787520397 ], [ -1.815676010342401, 53.639870753329198 ], [ -1.815630635748404, 53.639870683562933 ], [ -1.815585378597555, 53.639843649337415 ], [ -1.815540004032875, 53.63984357953683 ], [ -1.815494629468386, 53.63984350971905 ], [ -1.815449254904087, 53.639843439884075 ], [ -1.81540388033998, 53.63984337003189 ], [ -1.815358623363517, 53.639816335720681 ], [ -1.815313248828727, 53.639816265834177 ], [ -1.815267874294128, 53.639816195930486 ], [ -1.815222499759721, 53.639816126009592 ], [ -1.815177125225503, 53.639816056071503 ], [ -1.815131750691478, 53.639815986116211 ], [ -1.815086376157643, 53.639815916143718 ], [ -1.815041001623999, 53.639815846154043 ], [ -1.814995627090548, 53.639815776147174 ], [ -1.814950252557284, 53.639815706123088 ], [ -1.814904878024215, 53.639815636081835 ], [ -1.814859503491336, 53.639815566023358 ], [ -1.814814128958649, 53.639815495947708 ], [ -1.814768754426151, 53.639815425854849 ], [ -1.814723379893846, 53.639815355744787 ], [ -1.814678005361731, 53.639815285617537 ], [ -1.81463263082981, 53.639815215473085 ], [ -1.814587256298078, 53.639815145311452 ], [ -1.814541881766539, 53.639815075132596 ], [ -1.814496507235194, 53.639815004936565 ], [ -1.814451132704036, 53.639814934723326 ], [ -1.814405758173073, 53.639814864492905 ], [ -1.814360383642298, 53.639814794245261 ], [ -1.81431500911172, 53.639814723980436 ], [ -1.81426963458133, 53.639814653698416 ], [ -1.814224260051131, 53.6398145833992 ], [ -1.814178885521127, 53.63981451308279 ], [ -1.814133510991313, 53.639814442749199 ], [ -1.814088136461692, 53.639814372398384 ], [ -1.814042761932263, 53.639814302030373 ], [ -1.813997387403027, 53.639814231645175 ], [ -1.813952012873981, 53.639814161242789 ], [ -1.813906638345129, 53.639814090823194 ], [ -1.813861263816467, 53.63981402038641 ], [ -1.813815889287998, 53.639813949932432 ], [ -1.813770514759723, 53.639813879461258 ], [ -1.813725140231641, 53.63981380897286 ], [ -1.81367976570375, 53.639813738467289 ], [ -1.813634509862925, 53.639786703505187 ], [ -1.813589254079975, 53.63975966852589 ], [ -1.813543998354898, 53.639732633529434 ], [ -1.813498623914591, 53.639732562955267 ], [ -1.813453249474474, 53.639732492363919 ], [ -1.813407875034549, 53.639732421755376 ], [ -1.813362500594818, 53.639732351129631 ], [ -1.813317126155278, 53.639732280486712 ], [ -1.813271751715934, 53.639732209826555 ], [ -1.813226377276781, 53.639732139149238 ], [ -1.81318100283782, 53.639732068454713 ], [ -1.813135628399055, 53.639731997742985 ], [ -1.81309025396048, 53.639731927014054 ], [ -1.813044879522097, 53.63973185626795 ], [ -1.812999505083912, 53.63973178550463 ], [ -1.812954130645918, 53.639731714724121 ], [ -1.812908756208117, 53.63973164392641 ], [ -1.812863381770509, 53.639731573111526 ], [ -1.812818007333094, 53.639731502279425 ], [ -1.812772632895872, 53.639731431430143 ], [ -1.812727258458844, 53.639731360563637 ], [ -1.812682003315983, 53.639704325241702 ], [ -1.81263650958537, 53.639731218779069 ], [ -1.812591135148925, 53.639731147860992 ], [ -1.81254576071267, 53.639731076925706 ], [ -1.812500386276612, 53.639731005973246 ], [ -1.812455011840741, 53.639730935003577 ], [ -1.812409637405071, 53.639730864016713 ], [ -1.812364262969592, 53.63973079301266 ], [ -1.812318888534308, 53.639730721991384 ], [ -1.812273514099216, 53.639730650952949 ], [ -1.812228139664319, 53.639730579897282 ], [ -1.812182765229616, 53.639730508824442 ], [ -1.812137390795107, 53.639730437734393 ], [ -1.812092016360792, 53.639730366627163 ], [ -1.81204664192667, 53.639730295502716 ], [ -1.812001267492746, 53.639730224361102 ], [ -1.811955893059013, 53.639730153202265 ], [ -1.811910398839374, 53.639757046463188 ], [ -1.811865024377098, 53.639756975269897 ], [ -1.811819649915009, 53.639756904059389 ], [ -1.811774275453119, 53.639756832831722 ], [ -1.811728900991421, 53.639756761586831 ], [ -1.811683526529916, 53.639756690324759 ], [ -1.811638152068607, 53.639756619045485 ], [ -1.811592777607494, 53.639756547749016 ], [ -1.811547283128786, 53.639783440871625 ], [ -1.811501908639125, 53.639783369540687 ], [ -1.811456534149658, 53.639783298192555 ], [ -1.811411159660385, 53.639783226827234 ], [ -1.811365905304845, 53.639756191008722 ], [ -1.811320530844899, 53.639756119609075 ], [ -1.811275156385147, 53.639756048192226 ], [ -1.811229781925594, 53.639755976758202 ], [ -1.81118440746623, 53.639755905306949 ], [ -1.811139033007066, 53.639755833838521 ], [ -1.811093658548095, 53.639755762352898 ], [ -1.811048284089323, 53.639755690850059 ], [ -1.811002909630742, 53.639755619330032 ], [ -1.810957535172357, 53.639755547792817 ], [ -1.810912160714166, 53.639755476238413 ], [ -1.810866786256172, 53.639755404666793 ], [ -1.810821411798373, 53.639755333077979 ], [ -1.810776037340769, 53.639755261471976 ], [ -1.810730662883363, 53.639755189848778 ], [ -1.81068528842615, 53.639755118208392 ], [ -1.810639913969131, 53.639755046550796 ], [ -1.810594539512315, 53.639754974875991 ], [ -1.810549165055686, 53.639754903184006 ], [ -1.81050379059926, 53.639754831474825 ], [ -1.810458416143025, 53.639754759748442 ], [ -1.810413041686984, 53.639754688004878 ], [ -1.810367667231144, 53.639754616244097 ], [ -1.810322292775497, 53.639754544466129 ], [ -1.810276918320047, 53.639754472670965 ], [ -1.810231543864792, 53.639754400858614 ], [ -1.810186169409735, 53.639754329029053 ], [ -1.81014079495487, 53.63975425718229 ], [ -1.810095420500208, 53.639754185318338 ], [ -1.810050046045734, 53.639754113437206 ], [ -1.810004671591463, 53.639754041538851 ], [ -1.809959297137385, 53.639753969623293 ], [ -1.809913922683503, 53.639753897690575 ], [ -1.809868548229821, 53.639753825740641 ], [ -1.809823173776331, 53.639753753773505 ], [ -1.809777799323039, 53.639753681789188 ], [ -1.809732424869943, 53.639753609787668 ], [ -1.809687050417047, 53.639753537768947 ], [ -1.809641675964343, 53.63975346573303 ], [ -1.809596301511839, 53.639753393679925 ], [ -1.80955092705953, 53.639753321609604 ], [ -1.809505552607417, 53.639753249522109 ], [ -1.809460178155503, 53.639753177417404 ], [ -1.809414803703783, 53.639753105295505 ], [ -1.809369429252263, 53.639753033156417 ], [ -1.809324054800937, 53.639752961000134 ], [ -1.809278680349813, 53.639752888826656 ], [ -1.809233305898879, 53.639752816635976 ], [ -1.809187931448147, 53.639752744428087 ], [ -1.809142556997611, 53.639752672203002 ], [ -1.809097182547272, 53.639752599960744 ], [ -1.80905180809713, 53.639752527701269 ], [ -1.809006433647184, 53.639752455424613 ], [ -1.808961059197438, 53.639752383130748 ], [ -1.808915684747887, 53.639752310819702 ], [ -1.808870310298536, 53.639752238491432 ], [ -1.80882493584938, 53.639752166145989 ], [ -1.808779561400423, 53.639752093783329 ], [ -1.808734186951664, 53.639752021403503 ], [ -1.808688812503101, 53.639751949006452 ], [ -1.808643438054738, 53.639751876592229 ], [ -1.808598063606568, 53.639751804160788 ], [ -1.808552689158601, 53.639751731712174 ], [ -1.808507314710827, 53.639751659246329 ], [ -1.808461940263256, 53.639751586763325 ], [ -1.808416565815878, 53.639751514263097 ], [ -1.808371191368702, 53.639751441745695 ], [ -1.808325816921721, 53.639751369211083 ], [ -1.808280442474941, 53.639751296659291 ], [ -1.808235068028355, 53.639751224090269 ], [ -1.808189693581971, 53.639751151504065 ], [ -1.808144319135785, 53.639751078900673 ], [ -1.808098944689793, 53.639751006280079 ], [ -1.808053570244002, 53.639750933642297 ], [ -1.808008195798408, 53.639750860987313 ], [ -1.807962821353017, 53.639750788315133 ], [ -1.807917446907818, 53.639750715625759 ], [ -1.807872072462821, 53.639750642919175 ], [ -1.807826698018022, 53.63975057019541 ], [ -1.807781323573421, 53.639750497454443 ], [ -1.807735949129021, 53.639750424696288 ], [ -1.807690574684814, 53.63975035192091 ], [ -1.807645200240812, 53.639750279128371 ], [ -1.807599825797004, 53.63975020631861 ], [ -1.807554451353399, 53.639750133491653 ], [ -1.80750907690999, 53.639750060647529 ], [ -1.807463702466781, 53.639749987786189 ], [ -1.807418328023772, 53.639749914907632 ], [ -1.807372953580957, 53.639749842011909 ], [ -1.807327579138347, 53.639749769098991 ], [ -1.807282204695932, 53.639749696168849 ], [ -1.807236830253718, 53.639749623221519 ], [ -1.807191455811702, 53.639749550257022 ], [ -1.807146081369887, 53.639749477275295 ], [ -1.80710070692827, 53.639749404276387 ], [ -1.807055332486853, 53.639749331260262 ], [ -1.807009958045635, 53.639749258226963 ], [ -1.806964583604618, 53.639749185176463 ], [ -1.806919209163797, 53.639749112108767 ], [ -1.806873834723176, 53.639749039023876 ], [ -1.806828460282756, 53.639748965921775 ], [ -1.806783085842535, 53.639748892802494 ], [ -1.806737711402514, 53.639748819666011 ], [ -1.806692336962692, 53.639748746512332 ], [ -1.80664696252307, 53.639748673341451 ], [ -1.806601588083648, 53.639748600153382 ], [ -1.806556213644426, 53.639748526948125 ], [ -1.806510839205404, 53.639748453725637 ], [ -1.80646546476658, 53.639748380485983 ], [ -1.806420090327959, 53.639748307229127 ], [ -1.806374715889534, 53.639748233955075 ], [ -1.806329341451314, 53.639748160663828 ], [ -1.80628396701329, 53.639748087355379 ], [ -1.80623859257547, 53.639748014029735 ], [ -1.806193218137844, 53.639747940686888 ], [ -1.806147843700425, 53.639747867326847 ], [ -1.806102469263202, 53.639747793949617 ], [ -1.80605709482618, 53.639747720555192 ], [ -1.806011720389362, 53.639747647143565 ], [ -1.805966345952737, 53.63974757371475 ], [ -1.80592097151632, 53.639747500268726 ], [ -1.805875597080099, 53.639747426805528 ], [ -1.805830222644081, 53.639747353325113 ], [ -1.805784848208262, 53.639747279827503 ], [ -1.805739473772646, 53.639747206312698 ], [ -1.805694099337227, 53.639747132780684 ], [ -1.805648724902011, 53.639747059231503 ], [ -1.805603350466995, 53.639746985665099 ], [ -1.80555797603218, 53.639746912081513 ], [ -1.805512601597568, 53.639746838480725 ], [ -1.805467227163154, 53.63974676486275 ], [ -1.805421852728942, 53.639746691227572 ], [ -1.80537647829493, 53.639746617575199 ], [ -1.805331103861122, 53.639746543905623 ], [ -1.805285729427511, 53.639746470218846 ], [ -1.805240354994105, 53.63974639651488 ], [ -1.805194980560901, 53.639746322793734 ], [ -1.805149606127892, 53.639746249055364 ], [ -1.805104231695088, 53.63974617529982 ], [ -1.805058857262487, 53.639746101527081 ], [ -1.805013482830086, 53.639746027737125 ], [ -1.804968108397886, 53.639745953929989 ], [ -1.80492273396589, 53.639745880105657 ], [ -1.804877359534092, 53.639745806264116 ], [ -1.804831985102497, 53.639745732405387 ], [ -1.804786610671104, 53.639745658529449 ], [ -1.80474123623991, 53.639745584636323 ], [ -1.804695861808923, 53.639745510726009 ], [ -1.804650487378132, 53.639745436798499 ], [ -1.804605112947547, 53.639745362853787 ], [ -1.804559738517163, 53.639745288891866 ], [ -1.804514364086983, 53.639745214912779 ], [ -1.804468989656999, 53.639745140916467 ], [ -1.804423615227222, 53.639745066902968 ], [ -1.804378240797644, 53.639744992872274 ], [ -1.804332866368269, 53.639744918824391 ], [ -1.804287491939098, 53.639744844759292 ], [ -1.804242117510128, 53.639744770677005 ], [ -1.80419674308136, 53.63974469657753 ], [ -1.804151368652793, 53.639744622460846 ], [ -1.804105994224431, 53.639744548326988 ], [ -1.80406061979627, 53.639744474175913 ], [ -1.804015245368313, 53.639744400007643 ], [ -1.803969870940557, 53.639744325822186 ], [ -1.803924496513004, 53.639744251619526 ], [ -1.803879122085651, 53.63974417739967 ], [ -1.803833747658504, 53.639744103162613 ], [ -1.80378837323156, 53.639744028908382 ], [ -1.803742998804814, 53.639743954636927 ], [ -1.803697624378276, 53.639743880348277 ], [ -1.803652249951937, 53.639743806042446 ], [ -1.803606875525805, 53.639743731719413 ], [ -1.803561501099873, 53.639743657379178 ], [ -1.803516126674146, 53.639743583021762 ], [ -1.803470752248621, 53.639743508647136 ], [ -1.803425377823295, 53.63974343425533 ], [ -1.803380003398177, 53.6397433598463 ], [ -1.803334628973259, 53.639743285420103 ], [ -1.803289254548549, 53.639743210976697 ], [ -1.803243880124037, 53.639743136516081 ], [ -1.803198505699733, 53.639743062038285 ], [ -1.803153131275629, 53.639742987543279 ], [ -1.803107756851729, 53.639742913031093 ], [ -1.803062382428031, 53.639742838501704 ], [ -1.803017008004539, 53.63974276395512 ], [ -1.802971633581248, 53.639742689391333 ], [ -1.802926259158162, 53.639742614810352 ], [ -1.802880884735283, 53.63974254021219 ], [ -1.802835510312602, 53.639742465596811 ], [ -1.802790135890129, 53.639742390964237 ], [ -1.802744761467856, 53.639742316314489 ], [ -1.80269938704579, 53.639742241647511 ], [ -1.802654012623924, 53.639742166963366 ], [ -1.802608638202265, 53.639742092262011 ], [ -1.802563263780811, 53.639742017543455 ], [ -1.802517889359558, 53.63974194280771 ], [ -1.80247251493851, 53.63974186805477 ], [ -1.802427140517665, 53.639741793284621 ], [ -1.802381766097026, 53.639741718497298 ], [ -1.802336391676592, 53.639741643692759 ], [ -1.802291017256364, 53.639741568871045 ], [ -1.802245642836334, 53.639741494032116 ], [ -1.802200268416511, 53.639741419175984 ], [ -1.802154893996893, 53.639741344302678 ], [ -1.802109519577479, 53.639741269412156 ], [ -1.80206414515827, 53.639741194504445 ], [ -1.802018770739262, 53.639741119579547 ], [ -1.801973396320466, 53.639741044637454 ], [ -1.801928021901869, 53.639740969678144 ], [ -1.801882647483479, 53.63974089470166 ], [ -1.801837273065291, 53.639740819707967 ], [ -1.801791898647312, 53.639740744697072 ], [ -1.801746524229533, 53.639740669668988 ], [ -1.80170114981196, 53.639740594623703 ], [ -1.801655775394596, 53.639740519561244 ], [ -1.80161040097743, 53.639740444481561 ], [ -1.801565026560475, 53.639740369384697 ], [ -1.801519652143719, 53.639740294270617 ], [ -1.801474277727178, 53.639740219139362 ], [ -1.80142890331083, 53.639740143990899 ], [ -1.801383528894695, 53.639740068825247 ], [ -1.801338154478765, 53.639739993642401 ], [ -1.801292780063035, 53.639739918442352 ], [ -1.801247405647516, 53.639739843225101 ], [ -1.801202031232198, 53.639739767990662 ], [ -1.80115665681709, 53.63973969273902 ], [ -1.801111282402184, 53.639739617470191 ], [ -1.801065907987487, 53.639739542184167 ], [ -1.801020533572989, 53.63973946688094 ], [ -1.800975159158703, 53.639739391560511 ], [ -1.800929784744619, 53.639739316222901 ], [ -1.800884410330743, 53.639739240868089 ], [ -1.800839035917072, 53.63973916549606 ], [ -1.800793661503605, 53.639739090106872 ], [ -1.800748287090347, 53.639739014700453 ], [ -1.800702912677291, 53.639738939276867 ], [ -1.800657538264444, 53.639738863836065 ], [ -1.800612163851801, 53.639738788378082 ], [ -1.800566789439367, 53.63973871290289 ], [ -1.800521415027135, 53.639738637410503 ], [ -1.800476040615112, 53.639738561900913 ], [ -1.800430666203293, 53.639738486374128 ], [ -1.800385291791679, 53.639738410830155 ], [ -1.800339917380275, 53.639738335268987 ], [ -1.800294542969074, 53.639738259690624 ], [ -1.800249168558083, 53.639738184095052 ], [ -1.800203794147295, 53.639738108482305 ], [ -1.800158419736718, 53.639738032852335 ], [ -1.800113045326343, 53.639737957205185 ], [ -1.800067670916178, 53.639737881540846 ], [ -1.800022296506216, 53.639737805859298 ], [ -1.79997692209646, 53.639737730160554 ], [ -1.799931547686915, 53.63973765444463 ], [ -1.799886173277574, 53.639737578711475 ], [ -1.79984079886844, 53.639737502961147 ], [ -1.799795424459511, 53.639737427193616 ], [ -1.799750050050794, 53.639737351408897 ], [ -1.79970467564228, 53.639737275606976 ], [ -1.799659301233975, 53.639737199787866 ], [ -1.799613926825874, 53.639737123951548 ], [ -1.799568552417983, 53.639737048098041 ], [ -1.799523178010298, 53.639736972227325 ], [ -1.799477803602817, 53.639736896339429 ], [ -1.799432429195548, 53.639736820434322 ], [ -1.799387054788483, 53.639736744512049 ], [ -1.799341680381629, 53.639736668572553 ], [ -1.799296305974977, 53.639736592615861 ], [ -1.799250931568539, 53.639736516641982 ], [ -1.799205557162302, 53.639736440650886 ], [ -1.799160182756278, 53.639736364642609 ], [ -1.799114808350456, 53.639736288617158 ], [ -1.799069433944845, 53.639736212574469 ], [ -1.799024059539441, 53.639736136514607 ], [ -1.798978685134243, 53.639736060437556 ], [ -1.798933310729256, 53.639735984343297 ], [ -1.798887936324473, 53.639735908231835 ], [ -1.798842561919901, 53.639735832103192 ], [ -1.798797187515533, 53.639735755957339 ], [ -1.798751813111376, 53.639735679794292 ], [ -1.798706438707428, 53.639735603614056 ], [ -1.798661064303684, 53.639735527416612 ], [ -1.798615689900152, 53.639735451201986 ], [ -1.798570315496825, 53.639735374970158 ], [ -1.798524941093709, 53.639735298721135 ], [ -1.798479566690797, 53.639735222454917 ], [ -1.798434192288097, 53.639735146171489 ], [ -1.798388817885602, 53.639735069870873 ], [ -1.79834344348332, 53.63973499355307 ], [ -1.798298069081245, 53.639734917218064 ], [ -1.798252694679374, 53.639734840865856 ], [ -1.798207320277717, 53.63973476449646 ], [ -1.798161945876263, 53.639734688109868 ], [ -1.798116571475024, 53.639734611706075 ], [ -1.798071197073986, 53.639734535285086 ], [ -1.798025822673164, 53.63973445884691 ], [ -1.797980448272544, 53.639734382391509 ], [ -1.797935073872139, 53.639734305918935 ], [ -1.797889699471939, 53.639734229429152 ], [ -1.79784432507195, 53.639734152922195 ], [ -1.797798950672167, 53.639734076398028 ], [ -1.797753576272593, 53.639733999856659 ], [ -1.797708201873232, 53.639733923298103 ], [ -1.797662827474076, 53.639733846722351 ], [ -1.797617453075133, 53.639733770129403 ], [ -1.797572078676392, 53.639733693519254 ], [ -1.797526704277868, 53.639733616891895 ], [ -1.797481329879548, 53.639733540247356 ], [ -1.797435955481439, 53.639733463585614 ], [ -1.797390581083541, 53.639733386906698 ], [ -1.797345206685851, 53.639733310210566 ], [ -1.797299832288371, 53.639733233497232 ], [ -1.797254457891098, 53.639733156766702 ], [ -1.797209083494037, 53.639733080018992 ], [ -1.797163709097182, 53.639733003254079 ], [ -1.797118334700542, 53.639732926471957 ], [ -1.797072960304108, 53.639732849672662 ], [ -1.797027585907885, 53.639732772856156 ], [ -1.796982211511871, 53.639732696022449 ], [ -1.796936837116066, 53.639732619171554 ], [ -1.796891462720473, 53.639732542303449 ], [ -1.796846088325087, 53.63973246541817 ], [ -1.796800713929914, 53.639732388515675 ], [ -1.796755339534947, 53.639732311595999 ], [ -1.796709965140193, 53.639732234659121 ], [ -1.796664590745649, 53.639732157705062 ], [ -1.796619216351315, 53.639732080733779 ], [ -1.796573841957188, 53.639732003745301 ], [ -1.796528467563276, 53.639731926739643 ], [ -1.796483093169572, 53.639731849716789 ], [ -1.796437718776076, 53.639731772676726 ], [ -1.796392344382795, 53.639731695619467 ], [ -1.796346969989719, 53.639731618545021 ], [ -1.796301595596859, 53.639731541453372 ], [ -1.796256221204205, 53.639731464344536 ], [ -1.796210846811767, 53.639731387218504 ], [ -1.796165472419534, 53.639731310075263 ], [ -1.796120227883679, 53.639704268503159 ], [ -1.796074983405695, 53.639677226913918 ], [ -1.796029738985585, 53.639650185307502 ], [ -1.79598449462335, 53.639623143683913 ], [ -1.795939250318989, 53.63959610204315 ], [ -1.795894006072499, 53.639569060385242 ], [ -1.795848761883887, 53.639542018710138 ], [ -1.795803517753144, 53.639514977017889 ], [ -1.795758143594304, 53.639514899720488 ], [ -1.795712769435673, 53.639514822405914 ], [ -1.795667395277255, 53.639514745074102 ], [ -1.79562215129183, 53.639487703313328 ], [ -1.795576907364278, 53.639460661535374 ], [ -1.795531663494596, 53.639433619740245 ], [ -1.795486419682787, 53.639406577927964 ], [ -1.795441175928856, 53.63937953609851 ], [ -1.795395932232791, 53.639352494251895 ], [ -1.795350688594605, 53.6393254523881 ], [ -1.795305445014283, 53.639298410507152 ], [ -1.795260201491841, 53.639271368609016 ], [ -1.795214958027267, 53.639244326693735 ], [ -1.795169714620567, 53.639217284761287 ], [ -1.795124471271738, 53.639190242811658 ], [ -1.795079227980781, 53.639163200844877 ], [ -1.795033984747697, 53.639136158860936 ], [ -1.794988741572484, 53.6391091168598 ], [ -1.794943498455143, 53.639082074841504 ], [ -1.794898255395674, 53.639055032806063 ], [ -1.794853012394073, 53.639027990753434 ], [ -1.794807769450347, 53.639000948683659 ], [ -1.794762526564491, 53.638973906596711 ], [ -1.794717283736508, 53.638946864492596 ], [ -1.794672040966391, 53.638919822371314 ], [ -1.79462679825415, 53.638892780232858 ], [ -1.79458155559978, 53.638865738077243 ], [ -1.794536313003279, 53.638838695904454 ], [ -1.794491070464649, 53.638811653714505 ], [ -1.794445827983891, 53.638784611507404 ], [ -1.794400585561, 53.638757569283122 ], [ -1.794355343195982, 53.638730527041673 ], [ -1.794310100888834, 53.638703484783044 ], [ -1.794264858639557, 53.638676442507268 ], [ -1.794219616448148, 53.638649400214355 ], [ -1.794174374314611, 53.638622357904239 ], [ -1.794129132238944, 53.63859531557695 ], [ -1.794083890221146, 53.638568273232529 ], [ -1.794038648261217, 53.638541230870914 ], [ -1.793993406359159, 53.638514188492152 ], [ -1.79394816451497, 53.638487146096217 ], [ -1.793902922728649, 53.638460103683123 ], [ -1.7938576810002, 53.63843306125284 ], [ -1.793812439329621, 53.638406018805441 ], [ -1.793767197716908, 53.638378976340832 ], [ -1.793721956162066, 53.63835193385907 ], [ -1.793676714665091, 53.638324891360142 ], [ -1.793631473225988, 53.638297848844054 ], [ -1.793586231844752, 53.6382708063108 ], [ -1.793540990521383, 53.638243763760386 ], [ -1.793495749255886, 53.638216721192798 ], [ -1.793450508048258, 53.638189678608043 ], [ -1.793405266898496, 53.638162636006129 ], [ -1.7933600258066, 53.638135593387055 ], [ -1.793314784772578, 53.638108550750815 ], [ -1.793269543796421, 53.638081508097407 ], [ -1.793224302878131, 53.638054465426848 ], [ -1.793179062017711, 53.6380274227391 ], [ -1.793133821215159, 53.6380003800342 ], [ -1.793088580470473, 53.637973337312125 ], [ -1.793043339783655, 53.637946294572913 ], [ -1.792998099154706, 53.637919251816506 ], [ -1.792952858583624, 53.637892209042946 ], [ -1.79290761807041, 53.637865166252226 ], [ -1.792862377615061, 53.637838123444354 ], [ -1.792817137217581, 53.637811080619294 ], [ -1.792771896877967, 53.637784037777081 ], [ -1.792726656596223, 53.637756994917702 ], [ -1.79268141637234, 53.63772995204117 ], [ -1.792636176206329, 53.637702909147457 ], [ -1.792590936098182, 53.637675866236592 ], [ -1.792545696047904, 53.637648823308567 ], [ -1.792500456055491, 53.637621780363354 ], [ -1.792455216120946, 53.637594737400995 ], [ -1.792409976244265, 53.63756769442147 ], [ -1.792364736425452, 53.6375406514248 ], [ -1.792319496664504, 53.637513608410941 ], [ -1.792274256961424, 53.637486565379938 ], [ -1.792229017316208, 53.637459522331774 ], [ -1.792183777728858, 53.637432479266423 ], [ -1.792138538199373, 53.637405436183919 ], [ -1.792093298727756, 53.637378393084234 ], [ -1.792048059314004, 53.637351349967425 ], [ -1.792002819958115, 53.637324306833428 ], [ -1.791957580660095, 53.637297263682264 ], [ -1.791912341419937, 53.637270220513955 ], [ -1.791867102237648, 53.637243177328465 ], [ -1.791821863113221, 53.637216134125822 ], [ -1.791776624046659, 53.637189090905991 ], [ -1.791731385037962, 53.637162047669051 ], [ -1.791686146087133, 53.637135004414922 ], [ -1.791640907194167, 53.637107961143599 ], [ -1.791595668359064, 53.637080917855137 ], [ -1.791550429581828, 53.637053874549537 ], [ -1.791505190862454, 53.637026831226741 ], [ -1.791459952200946, 53.636999787886801 ], [ -1.791414713597301, 53.6369727445297 ], [ -1.791369475051523, 53.636945701155426 ], [ -1.791324236563604, 53.636918657763985 ], [ -1.791278998133553, 53.636891614355399 ], [ -1.791233759761366, 53.636864570929632 ], [ -1.791188521447042, 53.636837527486705 ], [ -1.791143283190579, 53.63681048402664 ], [ -1.791098044991984, 53.636783440549387 ], [ -1.79105280685125, 53.636756397054981 ], [ -1.791007568768381, 53.636729353543409 ], [ -1.790962330743372, 53.636702310014677 ], [ -1.79091709277623, 53.636675266468785 ], [ -1.790871854866949, 53.636648222905727 ], [ -1.790826617015532, 53.636621179325523 ], [ -1.790781379221978, 53.636594135728153 ], [ -1.790736141486285, 53.636567092113616 ], [ -1.790690903808458, 53.636540048481898 ], [ -1.790645666188491, 53.636513004833041 ], [ -1.790600428626387, 53.636485961167018 ], [ -1.790555191122145, 53.636458917483829 ], [ -1.790509953675767, 53.636431873783494 ], [ -1.790464716287249, 53.636404830065963 ], [ -1.790419478956596, 53.636377786331309 ], [ -1.790374241683802, 53.636350742579481 ], [ -1.790329004468874, 53.636323698810493 ], [ -1.790283767311804, 53.636296655024331 ], [ -1.790238530212599, 53.636269611221017 ], [ -1.790193293171252, 53.636242567400529 ], [ -1.790148056187772, 53.636215523562903 ], [ -1.790102819262146, 53.636188479708103 ], [ -1.790057582394388, 53.636161435836151 ], [ -1.790012345584488, 53.636134391947039 ], [ -1.789966975069735, 53.63613431245826 ], [ -1.789921738346844, 53.63610726853485 ], [ -1.789876501681815, 53.636080224594302 ], [ -1.789831265074646, 53.636053180636573 ], [ -1.78978602852534, 53.636026136661698 ], [ -1.789740792033891, 53.635999092669678 ], [ -1.789695555600308, 53.635972048660484 ], [ -1.789650319224581, 53.63594500463411 ], [ -1.789605082906718, 53.635917960590582 ], [ -1.789559846646714, 53.63589091652991 ], [ -1.789514476394503, 53.635890836869898 ], [ -1.78946924022151, 53.635863792774948 ], [ -1.789424004106373, 53.635836748662832 ], [ -1.789378633912674, 53.635836668951391 ], [ -1.789333397884549, 53.635809624804999 ], [ -1.78928816191428, 53.635782580641447 ], [ -1.789242926001873, 53.635755536460728 ], [ -1.789197690147326, 53.635728492262857 ], [ -1.789152454350636, 53.635701448047826 ], [ -1.789107084302896, 53.635701368233626 ], [ -1.789061714255372, 53.635701288402217 ], [ -1.78901647857484, 53.635674244135778 ], [ -1.788971242952166, 53.635647199852201 ], [ -1.788926007387353, 53.635620155551457 ], [ -1.788880771880398, 53.635593111233554 ], [ -1.788835536431303, 53.635566066898484 ], [ -1.788790301040065, 53.635539022546268 ], [ -1.78874506570669, 53.635511978176886 ], [ -1.788699830431173, 53.63548493379033 ], [ -1.788654595213515, 53.635457889386643 ], [ -1.788609360053716, 53.635430844965782 ], [ -1.788564124951773, 53.635403800527762 ], [ -1.788518889907691, 53.635376756072574 ], [ -1.788473654921465, 53.635349711600234 ], [ -1.788428419993101, 53.635322667110735 ], [ -1.788383185122594, 53.63529562260409 ], [ -1.788337950309945, 53.635268578080264 ], [ -1.788292715555155, 53.6352415335393 ], [ -1.788247480858224, 53.63521448898117 ], [ -1.788202246219147, 53.635187444405879 ], [ -1.788157011637932, 53.635160399813429 ], [ -1.788111777114574, 53.635133355203813 ], [ -1.788066542649072, 53.635106310577029 ], [ -1.788021308241428, 53.635079265933115 ], [ -1.787976073891642, 53.635052221272012 ], [ -1.787930839599716, 53.635025176593764 ], [ -1.787885605365643, 53.634998131898371 ], [ -1.787840371189431, 53.634971087185811 ], [ -1.787795137071074, 53.634944042456105 ], [ -1.787749903010575, 53.634916997709205 ], [ -1.78770466900793, 53.63488995294518 ], [ -1.787659435063146, 53.634862908163967 ], [ -1.787614201176217, 53.634835863365623 ], [ -1.787568967347145, 53.634808818550098 ], [ -1.787523733575928, 53.634781773717435 ], [ -1.78747849986257, 53.634754728867605 ], [ -1.787433266207068, 53.634727684000616 ], [ -1.787388032609421, 53.634700639116467 ], [ -1.78734279906963, 53.634673594215172 ], [ -1.787297565587696, 53.634646549296697 ], [ -1.787252332163619, 53.63461950436109 ], [ -1.787207098797397, 53.634592459408303 ], [ -1.787161865489029, 53.634565414438356 ] ] } }
]
}
